[3] 11:23:54 AM: Log started for 'C:\Tosca_Projects\Tosca_Workspaces\Tosca_SAP\Tosca_SAP.tws'
[3] 11:23:54 AM: Log level: 4
[3] 11:23:54 AM: Release: 13.0.0.28992
[3] 11:23:54 AM: No service discovery configured.
[3] 11:23:54 AM:  + DistributedExecutionAddIn: DistributedExecutionAddIn 13.0.0.1119 (29017)
[3] 11:23:54 AM:  + ExploratoryTestingAssistant: ExploratoryTestingAssistantAddIn 13.0.0.1119 (28914)
[3] 11:23:54 AM:  + ExploratoryTestingAssistantUI: ExploratoryTestingAssistantUIAddIn 13.0.0.1119 (28914)
[3] 11:23:54 AM:  + IntegrationManagementAddIn: IntegrationManagementAddIn 13.0.0.1119 (28914)
    + : SAPSolutionManagerIntegration 13.0.0.223 (223)
[3] 11:23:54 AM: Search started on 1 objects for query '->PROJECT->SUBPARTS:TCFolder[Name=="Execution"]->SUBPARTS:TCFolder=>SUBPARTS:InteractiveSession'
[3] 11:23:54 AM: Searcher found 0 results in 16.9548 ms
[3] 11:23:54 AM:  + OptIntAddIn: OptIntAddIn 13.0.0.1119 (28914)
[3] 11:23:54 AM:  + RemoteControl: RemoteControlAddIn 13.0.0.1119 (28914)
[3] 11:23:54 AM:  + Reporting: ReportingAddIn 13.0.0.1119 (28914)
[3] 11:23:54 AM:  + ReportingUI: ReportingUIAddIn 13.0.0.1119 (28914)
[3] 11:23:54 AM:  + RequirementsManagementAddIn: RequirementsManagement 13.0.0.1119 (28914)
[3] 11:23:54 AM:  + RequirementsManagementUIAddIn: RequirementsManagementUI 13.0.0.1119 (28914)
[3] 11:23:54 AM:  + SAPSolutionManagerAddIn: SAPSolutionManagerAddIn 13.0.0.1119 (28914)
[3] 11:23:54 AM:  + TestCaseDesign: TestCaseDesign 13.0.0.1119 (28914)
[3] 11:23:54 AM:  + ControlFlowDiagram: TestCaseVisualizationAddIn 13.0.0.1119 (29159)
[3] 11:23:54 AM:  + XDefinitions: XDefinitions 13.0.0.1119 (28914)
[3] 11:23:54 AM:  + XDefinitionsUI: XDefinitionsUI 13.0.0.1119 (28914)
[3] 11:23:54 AM: Opened from Workspace File 'C:\Tosca_Projects\Tosca_Workspaces\Tosca_SAP\Tosca_SAP.tws'
[4] 11:23:55 AM:  ShowStatusInfo: 'Refresh navigation view 'TestCases''
[4] 11:23:55 AM:  ShowStatusInfo: 'Ready'
[4] 11:23:55 AM:  ShowStatusInfo: 'Refresh navigation view 'Requirements''
[4] 11:23:55 AM:  ShowStatusInfo: 'Refresh navigation view 'TestCaseDesign''
[4] 11:23:55 AM:  ShowStatusInfo: 'Refresh navigation view 'Execution''
[4] 11:23:55 AM:  ShowStatusInfo: 'Refresh navigation view 'Issues''
[4] 11:23:55 AM:  ShowStatusInfo: 'Refresh navigation view 'Configurations''
[4] 11:23:55 AM:  ShowStatusInfo: 'Refresh navigation view 'Modules''
[4] 11:23:55 AM:  ShowStatusInfo: 'Refresh detail view 'TestCases''
[4] 11:23:55 AM:  ShowStatusInfo: 'Ready'
[4] 11:23:55 AM:  ShowStatusInfo: 'Refresh detail view 'Requirements''
[4] 11:23:55 AM:  ShowStatusInfo: 'Refresh detail view 'TestCaseDesign''
[4] 11:23:55 AM:  ShowStatusInfo: 'Refresh detail view 'Execution''
[4] 11:23:55 AM:  ShowStatusInfo: 'Refresh detail view 'Issues''
[4] 11:23:55 AM:  ShowStatusInfo: 'Refresh detail view 'Configurations''
[4] 11:23:55 AM:  ShowStatusInfo: 'Refresh detail view 'Modules''
[4] 11:23:55 AM:  ShowStatusInfo: 'Refresh  'WindowLabels''
[4] 11:23:55 AM:  ShowStatusInfo: 'Refresh all finished'
[4] 11:23:55 AM:  ShowStatusInfo: 'Refresh  'WindowLabels''
[4] 11:23:55 AM:  ShowStatusInfo: 'Refresh navigation view 'TestCases''
[4] 11:23:55 AM:  ShowStatusInfo: 'Ready'
[4] 11:23:55 AM:  ShowStatusInfo: 'Refresh navigation view 'Requirements''
[4] 11:23:55 AM:  ShowStatusInfo: 'Refresh navigation view 'TestCaseDesign''
[4] 11:23:55 AM:  ShowStatusInfo: 'Refresh navigation view 'Execution''
[4] 11:23:55 AM:  ShowStatusInfo: 'Refresh navigation view 'Issues''
[4] 11:23:55 AM:  ShowStatusInfo: 'Refresh navigation view 'Configurations''
[4] 11:23:55 AM:  ShowStatusInfo: 'Refresh navigation view 'Modules''
[4] 11:23:55 AM:  ShowStatusInfo: 'Refresh detail view 'TestCases''
[4] 11:23:55 AM:  ShowStatusInfo: 'Ready'
[4] 11:23:55 AM:  ShowStatusInfo: 'Refresh detail view 'Requirements''
[4] 11:23:55 AM:  ShowStatusInfo: 'Refresh detail view 'TestCaseDesign''
[4] 11:23:55 AM:  ShowStatusInfo: 'Refresh detail view 'Execution''
[4] 11:23:55 AM:  ShowStatusInfo: 'Refresh detail view 'Issues''
[4] 11:23:55 AM:  ShowStatusInfo: 'Refresh detail view 'Configurations''
[4] 11:23:55 AM:  ShowStatusInfo: 'Refresh detail view 'Modules''
[4] 11:23:55 AM:  ShowStatusInfo: 'Refresh  'WindowLabels''
[4] 11:23:55 AM:  ShowStatusInfo: 'Refresh all finished'
[3] 11:23:55 AM: OpenWorkspace took 00:00:11.1005854 to finish
[4] 11:23:55 AM:  ShowStatusInfo: '1 object selected'
[4] 11:23:55 AM:  ShowStatusInfo: 'Ready'
[3] 11:23:56 AM: Closing Workspace!
[3] 11:23:56 AM: Log closed!
