[3] 11:00:50 PM: Log started for 'C:\Users\ztie0198\Downloads\Tosca_Workspaces\Tosca_Workspaces\Tosca_SAP\Tosca_S.tws'
[3] 11:00:50 PM: Log level: 4
[3] 11:00:50 PM: Release: 13.0.0.28992
[3] 11:00:50 PM: OpenWorkspace took 00:07:06.4557071 to finish
