[3] 10:57:14 PM: Log started for 'C:\Users\ztie0198\Downloads\Tosca_Workspaces\Tosca_Workspaces\Tosca_SAP\Tosca_S.tws'
[3] 10:57:14 PM: Log level: 4
[3] 10:57:14 PM: Release: 13.0.0.28992
[3] 10:57:17 PM: No service discovery configured.
[3] 10:57:17 PM:  + DistributedExecutionAddIn: DistributedExecutionAddIn 13.0.0.1119 (29017)
[3] 10:57:17 PM:  + ExploratoryTestingAssistant: ExploratoryTestingAssistantAddIn 13.0.0.1119 (28914)
[3] 10:57:17 PM:  + ExploratoryTestingAssistantUI: ExploratoryTestingAssistantUIAddIn 13.0.0.1119 (28914)
[3] 10:57:17 PM:  + IntegrationManagementAddIn: IntegrationManagementAddIn 13.0.0.1119 (28914)
    + : SAPSolutionManagerIntegration 13.0.0.223 (223)
[3] 10:57:17 PM: Search started on 1 objects for query '->PROJECT->SUBPARTS:TCFolder[Name=="Execution"]->SUBPARTS:TCFolder=>SUBPARTS:InteractiveSession'
[3] 10:57:18 PM: Searcher found 0 results in 164.0001 ms
[3] 10:57:18 PM:  + OptIntAddIn: OptIntAddIn 13.0.0.1119 (28914)
[3] 10:57:18 PM:  + RemoteControl: RemoteControlAddIn 13.0.0.1119 (28914)
[3] 10:57:18 PM:  + Reporting: ReportingAddIn 13.0.0.1119 (28914)
[3] 10:57:18 PM:  + ReportingUI: ReportingUIAddIn 13.0.0.1119 (28914)
[3] 10:57:18 PM:  + RequirementsManagementAddIn: RequirementsManagement 13.0.0.1119 (28914)
[3] 10:57:18 PM:  + RequirementsManagementUIAddIn: RequirementsManagementUI 13.0.0.1119 (28914)
[3] 10:57:18 PM:  + SAPSolutionManagerAddIn: SAPSolutionManagerAddIn 13.0.0.1119 (28914)
[3] 10:57:18 PM:  + TestCaseDesign: TestCaseDesign 13.0.0.1119 (28914)
[3] 10:57:18 PM:  + ControlFlowDiagram: TestCaseVisualizationAddIn 13.0.0.1119 (29159)
[3] 10:57:18 PM:  + XDefinitions: XDefinitions 13.0.0.1119 (28914)
[3] 10:57:18 PM:  + XDefinitionsUI: XDefinitionsUI 13.0.0.1119 (28914)
[3] 10:57:18 PM: Opened from Workspace File 'C:\Users\ztie0198\Downloads\Tosca_Workspaces\Tosca_Workspaces\Tosca_SAP\Tosca_S.tws'
