[3] 9:58:11 AM: Log started for 'C:\Tosca_Projects\Tosca_Workspaces\Tosca_SAP\Tosca_SAP.tws'
[3] 9:58:11 AM: Log level: 4
[3] 9:58:11 AM: Release: 13.0.0.28992
[3] 9:58:16 AM: No service discovery configured.
[3] 9:58:16 AM:  + DistributedExecutionAddIn: DistributedExecutionAddIn 13.0.0.1119 (29017)
[3] 9:58:16 AM:  + ExploratoryTestingAssistant: ExploratoryTestingAssistantAddIn 13.0.0.1119 (28914)
[3] 9:58:16 AM:  + ExploratoryTestingAssistantUI: ExploratoryTestingAssistantUIAddIn 13.0.0.1119 (28914)
[3] 9:58:16 AM:  + IntegrationManagementAddIn: IntegrationManagementAddIn 13.0.0.1119 (28914)
    + : SAPSolutionManagerIntegration 13.0.0.223 (223)
[3] 9:58:16 AM: Search started on 1 objects for query '->PROJECT->SUBPARTS:TCFolder[Name=="Execution"]->SUBPARTS:TCFolder=>SUBPARTS:InteractiveSession'
[3] 9:58:16 AM: Searcher found 0 results in 360.0334 ms
[3] 9:58:17 AM:  + OptIntAddIn: OptIntAddIn 13.0.0.1119 (28914)
[3] 9:58:17 AM:  + RemoteControl: RemoteControlAddIn 13.0.0.1119 (28914)
[3] 9:58:17 AM:  + Reporting: ReportingAddIn 13.0.0.1119 (28914)
[3] 9:58:17 AM:  + ReportingUI: ReportingUIAddIn 13.0.0.1119 (28914)
[3] 9:58:17 AM:  + RequirementsManagementAddIn: RequirementsManagement 13.0.0.1119 (28914)
[3] 9:58:17 AM:  + RequirementsManagementUIAddIn: RequirementsManagementUI 13.0.0.1119 (28914)
[3] 9:58:17 AM:  + SAPSolutionManagerAddIn: SAPSolutionManagerAddIn 13.0.0.1119 (28914)
[3] 9:58:17 AM:  + TestCaseDesign: TestCaseDesign 13.0.0.1119 (28914)
[3] 9:58:17 AM:  + ControlFlowDiagram: TestCaseVisualizationAddIn 13.0.0.1119 (29159)
[3] 9:58:17 AM:  + XDefinitions: XDefinitions 13.0.0.1119 (28914)
[3] 9:58:17 AM:  + XDefinitionsUI: XDefinitionsUI 13.0.0.1119 (28914)
[3] 9:58:17 AM: Opened from Workspace File 'C:\Tosca_Projects\Tosca_Workspaces\Tosca_SAP\Tosca_SAP.tws'
[4] 9:58:39 AM:  ShowStatusInfo: 'Refresh navigation view 'TestCases''
[4] 9:58:39 AM:  ShowStatusInfo: 'Refresh navigation view 'Requirements''
[4] 9:58:39 AM:  ShowStatusInfo: 'Refresh navigation view 'TestCaseDesign''
[4] 9:58:39 AM:  ShowStatusInfo: 'Refresh navigation view 'Execution''
[4] 9:58:39 AM:  ShowStatusInfo: 'Refresh navigation view 'Issues''
[4] 9:58:39 AM:  ShowStatusInfo: 'Refresh navigation view 'Configurations''
[4] 9:58:39 AM:  ShowStatusInfo: 'Refresh navigation view 'Modules''
[4] 9:58:39 AM:  ShowStatusInfo: 'Ready'
[4] 9:58:40 AM:  ShowStatusInfo: 'Refresh detail view 'TestCases''
[4] 9:58:40 AM:  ShowStatusInfo: 'Refresh detail view 'Requirements''
[4] 9:58:40 AM:  ShowStatusInfo: 'Refresh detail view 'TestCaseDesign''
[4] 9:58:40 AM:  ShowStatusInfo: 'Refresh detail view 'Execution''
[4] 9:58:40 AM:  ShowStatusInfo: 'Refresh detail view 'Issues''
[4] 9:58:40 AM:  ShowStatusInfo: 'Refresh detail view 'Configurations''
[4] 9:58:40 AM:  ShowStatusInfo: 'Refresh detail view 'Modules''
[4] 9:58:40 AM:  ShowStatusInfo: 'Ready'
[4] 9:58:40 AM:  ShowStatusInfo: 'Refresh  'WindowLabels''
[4] 9:58:40 AM:  ShowStatusInfo: 'Refresh all finished'
[4] 9:58:40 AM:  ShowStatusInfo: 'Refresh  'WindowLabels''
[4] 9:58:40 AM:  ShowStatusInfo: 'Refresh navigation view 'TestCases''
[4] 9:58:40 AM:  ShowStatusInfo: 'Refresh navigation view 'Requirements''
[4] 9:58:40 AM:  ShowStatusInfo: 'Refresh navigation view 'TestCaseDesign''
[4] 9:58:40 AM:  ShowStatusInfo: 'Refresh navigation view 'Execution''
[4] 9:58:40 AM:  ShowStatusInfo: 'Refresh navigation view 'Issues''
[4] 9:58:40 AM:  ShowStatusInfo: 'Refresh navigation view 'Configurations''
[4] 9:58:40 AM:  ShowStatusInfo: 'Refresh navigation view 'Modules''
[4] 9:58:40 AM:  ShowStatusInfo: 'Ready'
[4] 9:58:40 AM:  ShowStatusInfo: 'Refresh detail view 'TestCases''
[4] 9:58:40 AM:  ShowStatusInfo: 'Refresh detail view 'Requirements''
[4] 9:58:40 AM:  ShowStatusInfo: 'Refresh detail view 'TestCaseDesign''
[4] 9:58:40 AM:  ShowStatusInfo: 'Refresh detail view 'Execution''
[4] 9:58:40 AM:  ShowStatusInfo: 'Refresh detail view 'Issues''
[4] 9:58:40 AM:  ShowStatusInfo: 'Refresh detail view 'Configurations''
[4] 9:58:40 AM:  ShowStatusInfo: 'Refresh detail view 'Modules''
[4] 9:58:40 AM:  ShowStatusInfo: 'Ready'
[4] 9:58:40 AM:  ShowStatusInfo: 'Refresh  'WindowLabels''
[4] 9:58:40 AM:  ShowStatusInfo: 'Refresh all finished'
[4] 9:58:40 AM:  ShowStatusInfo: 'Refresh navigation view 'TestCases''
[4] 9:58:40 AM:  ShowStatusInfo: 'Refresh navigation view 'Requirements''
[4] 9:58:40 AM:  ShowStatusInfo: 'Refresh navigation view 'TestCaseDesign''
[4] 9:58:40 AM:  ShowStatusInfo: 'Refresh navigation view 'Execution''
[4] 9:58:40 AM:  ShowStatusInfo: 'Refresh navigation view 'Issues''
[4] 9:58:40 AM:  ShowStatusInfo: 'Refresh navigation view 'Configurations''
[4] 9:58:40 AM:  ShowStatusInfo: 'Refresh navigation view 'Modules''
[4] 9:58:40 AM:  ShowStatusInfo: 'Ready'
[4] 9:58:40 AM:  ShowStatusInfo: 'Refresh detail view 'TestCases''
[4] 9:58:40 AM:  ShowStatusInfo: 'Refresh detail view 'Requirements''
[4] 9:58:40 AM:  ShowStatusInfo: 'Refresh detail view 'TestCaseDesign''
[4] 9:58:40 AM:  ShowStatusInfo: 'Refresh detail view 'Execution''
[4] 9:58:40 AM:  ShowStatusInfo: 'Refresh detail view 'Issues''
[4] 9:58:40 AM:  ShowStatusInfo: 'Refresh detail view 'Configurations''
[4] 9:58:40 AM:  ShowStatusInfo: 'Refresh detail view 'Modules''
[4] 9:58:40 AM:  ShowStatusInfo: 'Ready'
[4] 9:58:40 AM:  ShowStatusInfo: 'Refresh  'WindowLabels''
[4] 9:58:40 AM:  ShowStatusInfo: 'Refresh all finished'
[3] 9:58:40 AM: OpenWorkspace took 00:00:28.9774378 to finish
[4] 9:58:41 AM:  ShowStatusInfo: 'Ready'
[4] 9:58:46 AM:  ShowStatusInfo: 'Refresh navigation view 'TestCases''
[4] 9:58:46 AM:  ShowStatusInfo: 'Ready'
[4] 9:58:46 AM:  ShowStatusInfo: 'Refresh detail view 'TestCases''
[4] 9:58:46 AM:  ShowStatusInfo: 'Ready'
[4] 9:58:46 AM:  ShowStatusInfo: 'Refresh view finished'
[4] 9:58:48 AM:  ShowStatusInfo: 'Ready'
[4] 9:58:48 AM:  ShowStatusInfo: '1 object selected'
[4] 9:58:53 AM:  ShowStatusInfo: 'Ready'
[4] 9:58:53 AM:  ShowStatusInfo: '1 object selected'
[4] 9:58:58 AM:  ShowStatusInfo: 'Ready'
[4] 9:59:03 AM:  ShowStatusInfo: '2 objects selected'
[4] 9:59:05 AM:  ShowStatusInfo: 'Ready'
[3] 9:59:06 AM: Task 'Run in ScratchBook' started on
 1: '/TestCases'
 2: '/TestCases/Ariba/Proponent Test case/OpenUrl'
[4] 9:59:06 AM:  ShowStatusInfo: 'Run in ScratchBook'
[4] 9:59:08 AM:  ShowStatusInfo: 'Refresh navigation view 'TestCases''
[4] 9:59:08 AM:  ShowStatusInfo: 'Ready'
[4] 9:59:08 AM:  ShowStatusInfo: 'Refresh navigation view 'Requirements''
[4] 9:59:08 AM:  ShowStatusInfo: 'Refresh navigation view 'TestCaseDesign''
[4] 9:59:08 AM:  ShowStatusInfo: 'Refresh navigation view 'Execution''
[4] 9:59:08 AM:  ShowStatusInfo: 'Refresh navigation view 'Issues''
[4] 9:59:08 AM:  ShowStatusInfo: 'Refresh navigation view 'Configurations''
[4] 9:59:08 AM:  ShowStatusInfo: 'Refresh navigation view 'Modules''
[4] 9:59:08 AM:  ShowStatusInfo: 'Refresh detail view 'TestCases''
[4] 9:59:08 AM:  ShowStatusInfo: 'Ready'
[4] 9:59:08 AM:  ShowStatusInfo: 'Refresh detail view 'Requirements''
[4] 9:59:08 AM:  ShowStatusInfo: 'Refresh detail view 'TestCaseDesign''
[4] 9:59:08 AM:  ShowStatusInfo: 'Refresh detail view 'Execution''
[4] 9:59:08 AM:  ShowStatusInfo: 'Refresh detail view 'Issues''
[4] 9:59:08 AM:  ShowStatusInfo: 'Refresh detail view 'Configurations''
[4] 9:59:08 AM:  ShowStatusInfo: 'Refresh detail view 'Modules''
[4] 9:59:08 AM:  ShowStatusInfo: 'Refresh  'WindowLabels''
[4] 9:59:08 AM:  ShowStatusInfo: 'Refresh all finished'
[4] 9:59:13 AM:  ShowStatusInfo: 'Ready'
[3] 9:59:30 AM: Unable to run the selected item(s). No feasible executor was found.
Classic: Cannot run with Classic Engines.
TBox: A TestStepValue in the TestStep SummaryDetailsFilling is not referencing a ModuleAttribute.
[4] 9:59:58 AM:  ShowStatusInfo: 'Run finalizing ... '
[4] 9:59:58 AM:  ShowStatusInfo: 'Run finished'
[3] 9:59:59 AM: Task 'Run' finished
[4] 9:59:59 AM:  ShowStatusInfo: 'Ready'
[4] 9:59:59 AM:  ShowStatusInfo: 'Run in ScratchBook finalizing ... '
[4] 9:59:59 AM:  ShowStatusInfo: 'Refresh navigation view 'TestCases''
[4] 9:59:59 AM:  ShowStatusInfo: 'Ready'
[4] 9:59:59 AM:  ShowStatusInfo: 'Refresh navigation view 'Requirements''
[4] 9:59:59 AM:  ShowStatusInfo: 'Refresh navigation view 'TestCaseDesign''
[4] 9:59:59 AM:  ShowStatusInfo: 'Refresh navigation view 'Execution''
[4] 9:59:59 AM:  ShowStatusInfo: 'Refresh navigation view 'Issues''
[4] 9:59:59 AM:  ShowStatusInfo: 'Refresh navigation view 'Configurations''
[4] 9:59:59 AM:  ShowStatusInfo: 'Refresh navigation view 'Modules''
[4] 9:59:59 AM:  ShowStatusInfo: 'Refresh detail view 'TestCases''
[4] 9:59:59 AM:  ShowStatusInfo: 'Ready'
[4] 9:59:59 AM:  ShowStatusInfo: 'Refresh detail view 'Requirements''
[4] 9:59:59 AM:  ShowStatusInfo: 'Refresh detail view 'TestCaseDesign''
[4] 9:59:59 AM:  ShowStatusInfo: 'Refresh detail view 'Execution''
[4] 9:59:59 AM:  ShowStatusInfo: 'Refresh detail view 'Issues''
[4] 9:59:59 AM:  ShowStatusInfo: 'Refresh detail view 'Configurations''
[4] 9:59:59 AM:  ShowStatusInfo: 'Refresh detail view 'Modules''
[4] 9:59:59 AM:  ShowStatusInfo: 'Refresh  'WindowLabels''
[4] 9:59:59 AM:  ShowStatusInfo: 'Refresh all finished'
[4] 9:59:59 AM:  ShowStatusInfo: 'Run in ScratchBook finished'
[3] 9:59:59 AM: Task 'Run in ScratchBook' finished
[4] 9:59:59 AM:  ShowStatusInfo: 'Refresh navigation view 'TestCases''
[4] 9:59:59 AM:  ShowStatusInfo: 'Ready'
[4] 9:59:59 AM:  ShowStatusInfo: 'Refresh navigation view 'Requirements''
[4] 9:59:59 AM:  ShowStatusInfo: 'Refresh navigation view 'TestCaseDesign''
[4] 9:59:59 AM:  ShowStatusInfo: 'Refresh navigation view 'Execution''
[4] 9:59:59 AM:  ShowStatusInfo: 'Refresh navigation view 'Issues''
[4] 9:59:59 AM:  ShowStatusInfo: 'Refresh navigation view 'Configurations''
[4] 9:59:59 AM:  ShowStatusInfo: 'Refresh navigation view 'Modules''
[4] 9:59:59 AM:  ShowStatusInfo: 'Refresh detail view 'TestCases''
[4] 9:59:59 AM:  ShowStatusInfo: 'Ready'
[4] 9:59:59 AM:  ShowStatusInfo: 'Refresh detail view 'Requirements''
[4] 9:59:59 AM:  ShowStatusInfo: 'Refresh detail view 'TestCaseDesign''
[4] 9:59:59 AM:  ShowStatusInfo: 'Refresh detail view 'Execution''
[4] 9:59:59 AM:  ShowStatusInfo: 'Refresh detail view 'Issues''
[4] 9:59:59 AM:  ShowStatusInfo: 'Refresh detail view 'Configurations''
[4] 9:59:59 AM:  ShowStatusInfo: 'Refresh detail view 'Modules''
[4] 9:59:59 AM:  ShowStatusInfo: 'Refresh  'WindowLabels''
[4] 9:59:59 AM:  ShowStatusInfo: 'Refresh all finished'
[4] 9:59:59 AM:  ShowStatusInfo: 'Ready'
[4] 10:00:11 AM:  ShowStatusInfo: '1 object selected'
[4] 10:00:11 AM:  ShowStatusInfo: 'Ready'
[4] 10:00:14 AM:  ShowStatusInfo: '2 objects selected'
[4] 10:00:19 AM:  ShowStatusInfo: 'Ready'
[4] 10:00:20 AM:  ShowStatusInfo: 'Saving ...'
[3] 10:00:20 AM:  Save started!
[3] 10:00:22 AM:  Save finished!
[4] 10:00:22 AM:  ShowStatusInfo: 'Saved successfully'
[3] 10:00:22 AM: Closing Workspace!
[3] 10:00:23 AM: Log closed!
