[3] 2:32:43 PM: Log started for 'C:\Users\ztie0198\Downloads\Tosca_Workspaces\Tosca_Workspaces\Tosca_SAP\Tosca_S.tws'
[3] 2:32:43 PM: Log level: 4
[3] 2:32:43 PM: Release: 13.0.0.28992
[4] 2:32:43 PM:  ShowStatusInfo: 'Ready'
