[3] 2:11:39 PM: Log started for 'C:\Tosca_Projects\Tosca_Workspaces\Tosca_SAP\Tosca_SAP.tws'
[3] 2:11:39 PM: Log level: 4
[3] 2:11:39 PM: Release: 13.0.0.28992
[3] 2:11:40 PM: No service discovery configured.
[3] 2:11:40 PM:  + DistributedExecutionAddIn: DistributedExecutionAddIn 13.0.0.1119 (29017)
[3] 2:11:40 PM:  + ExploratoryTestingAssistant: ExploratoryTestingAssistantAddIn 13.0.0.1119 (28914)
[3] 2:11:40 PM:  + ExploratoryTestingAssistantUI: ExploratoryTestingAssistantUIAddIn 13.0.0.1119 (28914)
[3] 2:11:40 PM:  + IntegrationManagementAddIn: IntegrationManagementAddIn 13.0.0.1119 (28914)
    + : SAPSolutionManagerIntegration 13.0.0.223 (223)
[3] 2:11:41 PM: Search started on 1 objects for query '->PROJECT->SUBPARTS:TCFolder[Name=="Execution"]->SUBPARTS:TCFolder=>SUBPARTS:InteractiveSession'
[3] 2:11:41 PM: Searcher found 0 results in 102.9109 ms
[3] 2:11:41 PM:  + OptIntAddIn: OptIntAddIn 13.0.0.1119 (28914)
[3] 2:11:41 PM:  + RemoteControl: RemoteControlAddIn 13.0.0.1119 (28914)
[3] 2:11:41 PM:  + Reporting: ReportingAddIn 13.0.0.1119 (28914)
[3] 2:11:41 PM:  + ReportingUI: ReportingUIAddIn 13.0.0.1119 (28914)
[3] 2:11:41 PM:  + RequirementsManagementAddIn: RequirementsManagement 13.0.0.1119 (28914)
[3] 2:11:41 PM:  + RequirementsManagementUIAddIn: RequirementsManagementUI 13.0.0.1119 (28914)
[3] 2:11:41 PM:  + SAPSolutionManagerAddIn: SAPSolutionManagerAddIn 13.0.0.1119 (28914)
[3] 2:11:41 PM:  + TestCaseDesign: TestCaseDesign 13.0.0.1119 (28914)
[3] 2:11:41 PM:  + ControlFlowDiagram: TestCaseVisualizationAddIn 13.0.0.1119 (29159)
[3] 2:11:41 PM:  + XDefinitions: XDefinitions 13.0.0.1119 (28914)
[3] 2:11:41 PM:  + XDefinitionsUI: XDefinitionsUI 13.0.0.1119 (28914)
[3] 2:11:41 PM: Opened from Workspace File 'C:\Tosca_Projects\Tosca_Workspaces\Tosca_SAP\Tosca_SAP.tws'
[4] 2:11:42 PM:  ShowStatusInfo: 'Ready'
[4] 2:11:46 PM:  ShowStatusInfo: 'Refresh navigation view 'TestCases''
[4] 2:11:46 PM:  ShowStatusInfo: 'Refresh navigation view 'Requirements''
[4] 2:11:46 PM:  ShowStatusInfo: 'Refresh navigation view 'TestCaseDesign''
[4] 2:11:46 PM:  ShowStatusInfo: 'Refresh navigation view 'Execution''
[4] 2:11:46 PM:  ShowStatusInfo: 'Refresh navigation view 'Issues''
[4] 2:11:46 PM:  ShowStatusInfo: 'Refresh navigation view 'Configurations''
[4] 2:11:46 PM:  ShowStatusInfo: 'Refresh navigation view 'Modules''
[4] 2:11:46 PM:  ShowStatusInfo: 'Ready'
[4] 2:11:46 PM:  ShowStatusInfo: 'Refresh detail view 'TestCases''
[4] 2:11:46 PM:  ShowStatusInfo: 'Refresh detail view 'Requirements''
[4] 2:11:46 PM:  ShowStatusInfo: 'Refresh detail view 'TestCaseDesign''
[4] 2:11:46 PM:  ShowStatusInfo: 'Refresh detail view 'Execution''
[4] 2:11:46 PM:  ShowStatusInfo: 'Refresh detail view 'Issues''
[4] 2:11:46 PM:  ShowStatusInfo: 'Refresh detail view 'Configurations''
[4] 2:11:46 PM:  ShowStatusInfo: 'Refresh detail view 'Modules''
[4] 2:11:46 PM:  ShowStatusInfo: 'Ready'
[4] 2:11:46 PM:  ShowStatusInfo: 'Refresh  'WindowLabels''
[4] 2:11:46 PM:  ShowStatusInfo: 'Refresh all finished'
[4] 2:11:46 PM:  ShowStatusInfo: 'Refresh  'WindowLabels''
[4] 2:11:46 PM:  ShowStatusInfo: 'Refresh navigation view 'TestCases''
[4] 2:11:46 PM:  ShowStatusInfo: 'Refresh navigation view 'Requirements''
[4] 2:11:46 PM:  ShowStatusInfo: 'Refresh navigation view 'TestCaseDesign''
[4] 2:11:46 PM:  ShowStatusInfo: 'Refresh navigation view 'Execution''
[4] 2:11:46 PM:  ShowStatusInfo: 'Refresh navigation view 'Issues''
[4] 2:11:46 PM:  ShowStatusInfo: 'Refresh navigation view 'Configurations''
[4] 2:11:46 PM:  ShowStatusInfo: 'Refresh navigation view 'Modules''
[4] 2:11:46 PM:  ShowStatusInfo: 'Ready'
[4] 2:11:46 PM:  ShowStatusInfo: 'Refresh detail view 'TestCases''
[4] 2:11:46 PM:  ShowStatusInfo: 'Refresh detail view 'Requirements''
[4] 2:11:46 PM:  ShowStatusInfo: 'Refresh detail view 'TestCaseDesign''
[4] 2:11:46 PM:  ShowStatusInfo: 'Refresh detail view 'Execution''
[4] 2:11:46 PM:  ShowStatusInfo: 'Refresh detail view 'Issues''
[4] 2:11:46 PM:  ShowStatusInfo: 'Refresh detail view 'Configurations''
[4] 2:11:46 PM:  ShowStatusInfo: 'Refresh detail view 'Modules''
[4] 2:11:46 PM:  ShowStatusInfo: 'Ready'
[4] 2:11:46 PM:  ShowStatusInfo: 'Refresh  'WindowLabels''
[4] 2:11:46 PM:  ShowStatusInfo: 'Refresh all finished'
[4] 2:11:46 PM:  ShowStatusInfo: 'Refresh navigation view 'TestCases''
[4] 2:11:46 PM:  ShowStatusInfo: 'Refresh navigation view 'Requirements''
[4] 2:11:46 PM:  ShowStatusInfo: 'Refresh navigation view 'TestCaseDesign''
[4] 2:11:46 PM:  ShowStatusInfo: 'Refresh navigation view 'Execution''
[4] 2:11:46 PM:  ShowStatusInfo: 'Refresh navigation view 'Issues''
[4] 2:11:46 PM:  ShowStatusInfo: 'Refresh navigation view 'Configurations''
[4] 2:11:46 PM:  ShowStatusInfo: 'Refresh navigation view 'Modules''
[4] 2:11:46 PM:  ShowStatusInfo: 'Ready'
[4] 2:11:46 PM:  ShowStatusInfo: 'Refresh detail view 'TestCases''
[4] 2:11:46 PM:  ShowStatusInfo: 'Refresh detail view 'Requirements''
[4] 2:11:46 PM:  ShowStatusInfo: 'Refresh detail view 'TestCaseDesign''
[4] 2:11:46 PM:  ShowStatusInfo: 'Refresh detail view 'Execution''
[4] 2:11:46 PM:  ShowStatusInfo: 'Refresh detail view 'Issues''
[4] 2:11:46 PM:  ShowStatusInfo: 'Refresh detail view 'Configurations''
[4] 2:11:46 PM:  ShowStatusInfo: 'Refresh detail view 'Modules''
[4] 2:11:46 PM:  ShowStatusInfo: 'Ready'
[4] 2:11:46 PM:  ShowStatusInfo: 'Refresh  'WindowLabels''
[4] 2:11:46 PM:  ShowStatusInfo: 'Refresh all finished'
[3] 2:11:46 PM: OpenWorkspace took 00:00:06.9673943 to finish
[4] 2:11:47 PM:  ShowStatusInfo: 'Ready'
[4] 2:12:04 PM:  ShowStatusInfo: '1 object selected'
[4] 2:12:05 PM:  ShowStatusInfo: 'Ready'
[3] 2:12:06 PM: Task 'Scan Application' started on '/Modules/ERFC_TestCase3'
[4] 2:12:06 PM:  ShowStatusInfo: 'Scan Application'
[4] 2:12:11 PM:  ShowStatusInfo: 'Ready'
[4] 2:12:12 PM:  ShowStatusInfo: 'Starting Application (Cleaning up previous scan) ...'
[4] 2:12:12 PM:  ShowStatusInfo: 'Initializing  Application'
[4] 2:12:31 PM:  ShowStatusInfo: 'Starting XScan ...'
[4] 2:12:37 PM:  ShowStatusInfo: 'Bring Scan To Foreground ...'
[4] 2:12:37 PM:  ShowStatusInfo: 'Waiting for Scan Result ...'
[4] 2:14:24 PM:  ShowStatusInfo: 'Scan finished ...'
[4] 2:14:25 PM:  ShowStatusInfo: 'Ready'
[4] 2:14:25 PM:  ShowStatusInfo: 'Application finalizing ... '
[4] 2:14:25 PM:  ShowStatusInfo: 'Refresh navigation view 'TestCases''
[4] 2:14:25 PM:  ShowStatusInfo: 'Refresh navigation view 'Requirements''
[4] 2:14:25 PM:  ShowStatusInfo: 'Refresh navigation view 'TestCaseDesign''
[4] 2:14:25 PM:  ShowStatusInfo: 'Refresh navigation view 'Execution''
[4] 2:14:25 PM:  ShowStatusInfo: 'Refresh navigation view 'Issues''
[4] 2:14:25 PM:  ShowStatusInfo: 'Refresh navigation view 'Configurations''
[4] 2:14:25 PM:  ShowStatusInfo: 'Refresh navigation view 'Modules''
[4] 2:14:25 PM:  ShowStatusInfo: 'Ready'
[4] 2:14:25 PM:  ShowStatusInfo: 'Refresh detail view 'TestCases''
[4] 2:14:25 PM:  ShowStatusInfo: 'Refresh detail view 'Requirements''
[4] 2:14:25 PM:  ShowStatusInfo: 'Refresh detail view 'TestCaseDesign''
[4] 2:14:25 PM:  ShowStatusInfo: 'Refresh detail view 'Execution''
[4] 2:14:25 PM:  ShowStatusInfo: 'Refresh detail view 'Issues''
[4] 2:14:25 PM:  ShowStatusInfo: 'Refresh detail view 'Configurations''
[4] 2:14:25 PM:  ShowStatusInfo: 'Refresh detail view 'Modules''
[4] 2:14:25 PM:  ShowStatusInfo: 'Ready'
[4] 2:14:25 PM:  ShowStatusInfo: 'Refresh  'WindowLabels''
[4] 2:14:25 PM:  ShowStatusInfo: 'Refresh all finished'
[4] 2:14:25 PM:  ShowStatusInfo: 'Application finished'
[3] 2:14:25 PM: Task 'Scan Application' finished
[4] 2:14:26 PM:  ShowStatusInfo: 'Refresh navigation view 'TestCases''
[4] 2:14:26 PM:  ShowStatusInfo: 'Ready'
[4] 2:14:26 PM:  ShowStatusInfo: 'Refresh detail view 'TestCases''
[4] 2:14:26 PM:  ShowStatusInfo: 'Ready'
[4] 2:14:26 PM:  ShowStatusInfo: 'Refresh view finished'
[4] 2:14:29 PM:  ShowStatusInfo: 'Ready'
[4] 2:14:29 PM:  ShowStatusInfo: '1 object selected'
[4] 2:14:30 PM:  ShowStatusInfo: 'Ready'
[4] 2:14:31 PM:  ShowStatusInfo: '1 object selected'
[4] 2:14:31 PM:  ShowStatusInfo: 'Ready'
[4] 2:14:32 PM:  ShowStatusInfo: '1 object selected'
[4] 2:14:32 PM:  ShowStatusInfo: 'Ready'
[3] 2:14:34 PM: Task 'Run in ScratchBook' started on '/TestCases/ERFC_Project_Create new request - Type I Arson by Employee/TC_ERFC_01 -proponent/OpenUrl'
[4] 2:14:34 PM:  ShowStatusInfo: 'Run in ScratchBook'
[4] 2:14:34 PM:  ShowStatusInfo: 'Refresh navigation view 'TestCases''
[4] 2:14:34 PM:  ShowStatusInfo: 'Ready'
[4] 2:14:34 PM:  ShowStatusInfo: 'Refresh navigation view 'Requirements''
[4] 2:14:34 PM:  ShowStatusInfo: 'Refresh navigation view 'TestCaseDesign''
[4] 2:14:34 PM:  ShowStatusInfo: 'Refresh navigation view 'Execution''
[4] 2:14:34 PM:  ShowStatusInfo: 'Refresh navigation view 'Issues''
[4] 2:14:34 PM:  ShowStatusInfo: 'Refresh navigation view 'Configurations''
[4] 2:14:34 PM:  ShowStatusInfo: 'Refresh navigation view 'Modules''
[4] 2:14:34 PM:  ShowStatusInfo: 'Refresh detail view 'TestCases''
[4] 2:14:34 PM:  ShowStatusInfo: 'Ready'
[4] 2:14:34 PM:  ShowStatusInfo: 'Refresh detail view 'Requirements''
[4] 2:14:34 PM:  ShowStatusInfo: 'Refresh detail view 'TestCaseDesign''
[4] 2:14:34 PM:  ShowStatusInfo: 'Refresh detail view 'Execution''
[4] 2:14:34 PM:  ShowStatusInfo: 'Refresh detail view 'Issues''
[4] 2:14:34 PM:  ShowStatusInfo: 'Refresh detail view 'Configurations''
[4] 2:14:34 PM:  ShowStatusInfo: 'Refresh detail view 'Modules''
[4] 2:14:34 PM:  ShowStatusInfo: 'Refresh  'WindowLabels''
[4] 2:14:34 PM:  ShowStatusInfo: 'Refresh all finished'
[4] 2:14:34 PM:  ShowStatusInfo: 'Run started with TBoxRunTaskExecutor'
[4] 2:14:34 PM:  ShowStatusInfo: 'Verifying required licenses ...'
[4] 2:14:37 PM:  ShowStatusInfo: 'Execution Running ...'
[4] 2:14:57 PM:  ShowStatusInfo: 'Processing execution results ...'
[3] 2:14:57 PM: AgentResults count: 1
[3] 2:14:59 PM: executionResponses count: 1
[4] 2:15:01 PM:  ShowStatusInfo: 'Run finalizing ... '
[4] 2:15:01 PM:  ShowStatusInfo: 'Run finished'
[3] 2:15:01 PM: Task 'Run' finished
[4] 2:15:01 PM:  ShowStatusInfo: 'Ready'
[4] 2:15:01 PM:  ShowStatusInfo: 'Run in ScratchBook finalizing ... '
[4] 2:15:01 PM:  ShowStatusInfo: 'Refresh navigation view 'TestCases''
[4] 2:15:01 PM:  ShowStatusInfo: 'Ready'
[4] 2:15:01 PM:  ShowStatusInfo: 'Refresh navigation view 'Requirements''
[4] 2:15:01 PM:  ShowStatusInfo: 'Refresh navigation view 'TestCaseDesign''
[4] 2:15:01 PM:  ShowStatusInfo: 'Refresh navigation view 'Execution''
[4] 2:15:01 PM:  ShowStatusInfo: 'Refresh navigation view 'Issues''
[4] 2:15:01 PM:  ShowStatusInfo: 'Refresh navigation view 'Configurations''
[4] 2:15:01 PM:  ShowStatusInfo: 'Refresh navigation view 'Modules''
[4] 2:15:01 PM:  ShowStatusInfo: 'Refresh detail view 'TestCases''
[4] 2:15:01 PM:  ShowStatusInfo: 'Ready'
[4] 2:15:01 PM:  ShowStatusInfo: 'Refresh detail view 'Requirements''
[4] 2:15:01 PM:  ShowStatusInfo: 'Refresh detail view 'TestCaseDesign''
[4] 2:15:01 PM:  ShowStatusInfo: 'Refresh detail view 'Execution''
[4] 2:15:01 PM:  ShowStatusInfo: 'Refresh detail view 'Issues''
[4] 2:15:01 PM:  ShowStatusInfo: 'Refresh detail view 'Configurations''
[4] 2:15:01 PM:  ShowStatusInfo: 'Refresh detail view 'Modules''
[4] 2:15:01 PM:  ShowStatusInfo: 'Refresh  'WindowLabels''
[4] 2:15:01 PM:  ShowStatusInfo: 'Refresh all finished'
[4] 2:15:01 PM:  ShowStatusInfo: 'Run in ScratchBook finished'
[3] 2:15:01 PM: Task 'Run in ScratchBook' finished
[4] 2:15:01 PM:  ShowStatusInfo: 'Refresh navigation view 'TestCases''
[4] 2:15:01 PM:  ShowStatusInfo: 'Ready'
[4] 2:15:01 PM:  ShowStatusInfo: 'Refresh navigation view 'Requirements''
[4] 2:15:01 PM:  ShowStatusInfo: 'Refresh navigation view 'TestCaseDesign''
[4] 2:15:01 PM:  ShowStatusInfo: 'Refresh navigation view 'Execution''
[4] 2:15:01 PM:  ShowStatusInfo: 'Refresh navigation view 'Issues''
[4] 2:15:01 PM:  ShowStatusInfo: 'Refresh navigation view 'Configurations''
[4] 2:15:01 PM:  ShowStatusInfo: 'Refresh navigation view 'Modules''
[4] 2:15:01 PM:  ShowStatusInfo: 'Refresh detail view 'TestCases''
[4] 2:15:01 PM:  ShowStatusInfo: 'Ready'
[4] 2:15:01 PM:  ShowStatusInfo: 'Refresh detail view 'Requirements''
[4] 2:15:01 PM:  ShowStatusInfo: 'Refresh detail view 'TestCaseDesign''
[4] 2:15:01 PM:  ShowStatusInfo: 'Refresh detail view 'Execution''
[4] 2:15:01 PM:  ShowStatusInfo: 'Refresh detail view 'Issues''
[4] 2:15:01 PM:  ShowStatusInfo: 'Refresh detail view 'Configurations''
[4] 2:15:01 PM:  ShowStatusInfo: 'Refresh detail view 'Modules''
[4] 2:15:01 PM:  ShowStatusInfo: 'Refresh  'WindowLabels''
[4] 2:15:01 PM:  ShowStatusInfo: 'Refresh all finished'
[4] 2:15:01 PM:  ShowStatusInfo: 'Ready'
[4] 2:15:10 PM:  ShowStatusInfo: '1 object selected'
[4] 2:15:10 PM:  ShowStatusInfo: 'Ready'
[4] 2:19:57 PM:  ShowStatusInfo: '1 object selected'
[4] 2:19:57 PM:  ShowStatusInfo: 'Ready'
[4] 2:20:19 PM:  ShowStatusInfo: '1 object selected'
[4] 2:20:23 PM:  ShowStatusInfo: 'Refresh navigation view 'TestCases''
[4] 2:20:23 PM:  ShowStatusInfo: 'Ready'
[4] 2:20:23 PM:  ShowStatusInfo: 'Refresh navigation view 'Requirements''
[4] 2:20:23 PM:  ShowStatusInfo: 'Refresh navigation view 'TestCaseDesign''
[4] 2:20:23 PM:  ShowStatusInfo: 'Refresh navigation view 'Execution''
[4] 2:20:23 PM:  ShowStatusInfo: 'Refresh navigation view 'Issues''
[4] 2:20:23 PM:  ShowStatusInfo: 'Refresh navigation view 'Configurations''
[4] 2:20:23 PM:  ShowStatusInfo: 'Refresh navigation view 'Modules''
[4] 2:20:23 PM:  ShowStatusInfo: 'Refresh detail view 'TestCases''
[4] 2:20:23 PM:  ShowStatusInfo: 'Ready'
[4] 2:20:23 PM:  ShowStatusInfo: 'Refresh detail view 'Requirements''
[4] 2:20:23 PM:  ShowStatusInfo: 'Refresh detail view 'TestCaseDesign''
[4] 2:20:23 PM:  ShowStatusInfo: 'Refresh detail view 'Execution''
[4] 2:20:23 PM:  ShowStatusInfo: 'Refresh detail view 'Issues''
[4] 2:20:23 PM:  ShowStatusInfo: 'Refresh detail view 'Configurations''
[4] 2:20:23 PM:  ShowStatusInfo: 'Refresh detail view 'Modules''
[4] 2:20:23 PM:  ShowStatusInfo: 'Refresh  'WindowLabels''
[4] 2:20:23 PM:  ShowStatusInfo: 'Refresh all finished'
[4] 2:20:23 PM:  ShowStatusInfo: 'Ready'
[4] 2:20:23 PM:  ShowStatusInfo: '1 object selected'
[4] 2:20:28 PM:  ShowStatusInfo: 'Refresh navigation view 'TestCases''
[4] 2:20:28 PM:  ShowStatusInfo: 'Ready'
[4] 2:20:28 PM:  ShowStatusInfo: 'Refresh navigation view 'Requirements''
[4] 2:20:28 PM:  ShowStatusInfo: 'Refresh navigation view 'TestCaseDesign''
[4] 2:20:28 PM:  ShowStatusInfo: 'Refresh navigation view 'Execution''
[4] 2:20:28 PM:  ShowStatusInfo: 'Refresh navigation view 'Issues''
[4] 2:20:28 PM:  ShowStatusInfo: 'Refresh navigation view 'Configurations''
[4] 2:20:28 PM:  ShowStatusInfo: 'Refresh navigation view 'Modules''
[4] 2:20:28 PM:  ShowStatusInfo: 'Refresh detail view 'TestCases''
[4] 2:20:28 PM:  ShowStatusInfo: 'Ready'
[4] 2:20:28 PM:  ShowStatusInfo: 'Refresh detail view 'Requirements''
[4] 2:20:28 PM:  ShowStatusInfo: 'Refresh detail view 'TestCaseDesign''
[4] 2:20:28 PM:  ShowStatusInfo: 'Refresh detail view 'Execution''
[4] 2:20:28 PM:  ShowStatusInfo: 'Refresh detail view 'Issues''
[4] 2:20:28 PM:  ShowStatusInfo: 'Refresh detail view 'Configurations''
[4] 2:20:28 PM:  ShowStatusInfo: 'Refresh detail view 'Modules''
[4] 2:20:28 PM:  ShowStatusInfo: 'Refresh  'WindowLabels''
[4] 2:20:28 PM:  ShowStatusInfo: 'Refresh all finished'
[4] 2:20:28 PM:  ShowStatusInfo: 'Ready'
[4] 2:20:28 PM:  ShowStatusInfo: '1 object selected'
[4] 2:20:30 PM:  ShowStatusInfo: 'Saving ...'
[3] 2:20:30 PM:  Save started!
[3] 2:20:31 PM:  Save finished!
[4] 2:20:31 PM:  ShowStatusInfo: 'Saved successfully'
[4] 2:20:31 PM:  ShowStatusInfo: 'Saving ...'
[4] 2:20:31 PM:  ShowStatusInfo: 'Saved successfully'
[4] 2:20:36 PM:  ShowStatusInfo: 'Ready'
[4] 2:21:22 PM:  ShowStatusInfo: 'Saving ...'
[4] 2:21:22 PM:  ShowStatusInfo: 'Saved successfully'
[4] 2:21:23 PM:  ShowStatusInfo: 'Saving ...'
[4] 2:21:23 PM:  ShowStatusInfo: 'Saved successfully'
[4] 2:21:28 PM:  ShowStatusInfo: 'Ready'
[4] 2:26:28 PM:  ShowStatusInfo: '1 object selected'
[4] 2:26:28 PM:  ShowStatusInfo: 'Ready'
[4] 2:26:34 PM:  ShowStatusInfo: '1 object selected'
[4] 2:26:38 PM:  ShowStatusInfo: 'Refresh navigation view 'TestCases''
[4] 2:26:38 PM:  ShowStatusInfo: 'Ready'
[4] 2:26:38 PM:  ShowStatusInfo: 'Refresh navigation view 'Requirements''
[4] 2:26:38 PM:  ShowStatusInfo: 'Refresh navigation view 'TestCaseDesign''
[4] 2:26:38 PM:  ShowStatusInfo: 'Refresh navigation view 'Execution''
[4] 2:26:38 PM:  ShowStatusInfo: 'Refresh navigation view 'Issues''
[4] 2:26:38 PM:  ShowStatusInfo: 'Refresh navigation view 'Configurations''
[4] 2:26:38 PM:  ShowStatusInfo: 'Refresh navigation view 'Modules''
[4] 2:26:38 PM:  ShowStatusInfo: 'Refresh detail view 'TestCases''
[4] 2:26:38 PM:  ShowStatusInfo: 'Ready'
[4] 2:26:38 PM:  ShowStatusInfo: 'Refresh detail view 'Requirements''
[4] 2:26:38 PM:  ShowStatusInfo: 'Refresh detail view 'TestCaseDesign''
[4] 2:26:38 PM:  ShowStatusInfo: 'Refresh detail view 'Execution''
[4] 2:26:38 PM:  ShowStatusInfo: 'Refresh detail view 'Issues''
[4] 2:26:38 PM:  ShowStatusInfo: 'Refresh detail view 'Configurations''
[4] 2:26:38 PM:  ShowStatusInfo: 'Refresh detail view 'Modules''
[4] 2:26:38 PM:  ShowStatusInfo: 'Refresh  'WindowLabels''
[4] 2:26:38 PM:  ShowStatusInfo: 'Refresh all finished'
[4] 2:26:38 PM:  ShowStatusInfo: 'Ready'
[4] 2:26:38 PM:  ShowStatusInfo: '1 object selected'
[4] 2:26:41 PM:  ShowStatusInfo: 'Saving ...'
[3] 2:26:41 PM:  Save started!
[3] 2:26:41 PM:  Save finished!
[4] 2:26:41 PM:  ShowStatusInfo: 'Saved successfully'
[4] 2:26:44 PM:  ShowStatusInfo: 'Refresh navigation view 'TestCases''
[4] 2:26:44 PM:  ShowStatusInfo: 'Ready'
[4] 2:26:44 PM:  ShowStatusInfo: 'Refresh navigation view 'Requirements''
[4] 2:26:44 PM:  ShowStatusInfo: 'Refresh navigation view 'TestCaseDesign''
[4] 2:26:44 PM:  ShowStatusInfo: 'Refresh navigation view 'Execution''
[4] 2:26:44 PM:  ShowStatusInfo: 'Refresh navigation view 'Issues''
[4] 2:26:44 PM:  ShowStatusInfo: 'Refresh navigation view 'Configurations''
[4] 2:26:44 PM:  ShowStatusInfo: 'Refresh navigation view 'Modules''
[4] 2:26:44 PM:  ShowStatusInfo: 'Refresh detail view 'TestCases''
[4] 2:26:44 PM:  ShowStatusInfo: 'Ready'
[4] 2:26:44 PM:  ShowStatusInfo: 'Refresh detail view 'Requirements''
[4] 2:26:44 PM:  ShowStatusInfo: 'Refresh detail view 'TestCaseDesign''
[4] 2:26:44 PM:  ShowStatusInfo: 'Refresh detail view 'Execution''
[4] 2:26:44 PM:  ShowStatusInfo: 'Refresh detail view 'Issues''
[4] 2:26:44 PM:  ShowStatusInfo: 'Refresh detail view 'Configurations''
[4] 2:26:44 PM:  ShowStatusInfo: 'Refresh detail view 'Modules''
[4] 2:26:44 PM:  ShowStatusInfo: 'Refresh  'WindowLabels''
[4] 2:26:44 PM:  ShowStatusInfo: 'Refresh all finished'
[4] 2:26:44 PM:  ShowStatusInfo: 'Ready'
[4] 2:26:44 PM:  ShowStatusInfo: '1 object selected'
[4] 2:26:49 PM:  ShowStatusInfo: 'Ready'
[4] 2:26:50 PM:  ShowStatusInfo: '1 object selected'
[4] 2:26:50 PM:  ShowStatusInfo: 'Ready'
[4] 2:26:51 PM:  ShowStatusInfo: '1 object selected'
[4] 2:26:51 PM:  ShowStatusInfo: 'Ready'
[4] 2:26:56 PM:  ShowStatusInfo: '1 object selected'
[4] 2:26:57 PM:  ShowStatusInfo: 'Saving ...'
[3] 2:26:57 PM:  Save started!
[3] 2:26:57 PM:  Save finished!
[4] 2:26:57 PM:  ShowStatusInfo: 'Saved successfully'
[4] 2:26:57 PM:  ShowStatusInfo: 'Saving ...'
[4] 2:26:57 PM:  ShowStatusInfo: 'Saved successfully'
[4] 2:26:58 PM:  ShowStatusInfo: 'Saving ...'
[4] 2:26:58 PM:  ShowStatusInfo: 'Saved successfully'
[4] 2:26:58 PM:  ShowStatusInfo: 'Saving ...'
[4] 2:26:58 PM:  ShowStatusInfo: 'Saved successfully'
[4] 2:27:03 PM:  ShowStatusInfo: 'Ready'
[4] 2:36:07 PM:  ShowStatusInfo: '1 object selected'
[4] 2:36:07 PM:  ShowStatusInfo: 'Ready'
[3] 2:36:09 PM: Task 'Run in ScratchBook' started on '/TestCases/ERFC_Project_Create new request - Type I Arson by Employee/TC_ERFC_01 -proponent/OpenUrl'
[4] 2:36:09 PM:  ShowStatusInfo: 'Run in ScratchBook'
[4] 2:36:10 PM:  ShowStatusInfo: 'Refresh navigation view 'TestCases''
[4] 2:36:10 PM:  ShowStatusInfo: 'Ready'
[4] 2:36:10 PM:  ShowStatusInfo: 'Refresh navigation view 'Requirements''
[4] 2:36:10 PM:  ShowStatusInfo: 'Refresh navigation view 'TestCaseDesign''
[4] 2:36:10 PM:  ShowStatusInfo: 'Refresh navigation view 'Execution''
[4] 2:36:10 PM:  ShowStatusInfo: 'Refresh navigation view 'Issues''
[4] 2:36:10 PM:  ShowStatusInfo: 'Refresh navigation view 'Configurations''
[4] 2:36:10 PM:  ShowStatusInfo: 'Refresh navigation view 'Modules''
[4] 2:36:10 PM:  ShowStatusInfo: 'Refresh detail view 'TestCases''
[4] 2:36:10 PM:  ShowStatusInfo: 'Ready'
[4] 2:36:10 PM:  ShowStatusInfo: 'Refresh detail view 'Requirements''
[4] 2:36:10 PM:  ShowStatusInfo: 'Refresh detail view 'TestCaseDesign''
[4] 2:36:10 PM:  ShowStatusInfo: 'Refresh detail view 'Execution''
[4] 2:36:10 PM:  ShowStatusInfo: 'Refresh detail view 'Issues''
[4] 2:36:10 PM:  ShowStatusInfo: 'Refresh detail view 'Configurations''
[4] 2:36:10 PM:  ShowStatusInfo: 'Refresh detail view 'Modules''
[4] 2:36:10 PM:  ShowStatusInfo: 'Refresh  'WindowLabels''
[4] 2:36:10 PM:  ShowStatusInfo: 'Refresh all finished'
[4] 2:36:11 PM:  ShowStatusInfo: 'Run started with TBoxRunTaskExecutor'
[4] 2:36:11 PM:  ShowStatusInfo: 'Verifying required licenses ...'
[4] 2:36:16 PM:  ShowStatusInfo: 'Execution Running ...'
[4] 2:36:32 PM:  ShowStatusInfo: 'Processing execution results ...'
[3] 2:36:32 PM: AgentResults count: 1
[3] 2:36:34 PM: executionResponses count: 1
[4] 2:36:35 PM:  ShowStatusInfo: 'Run finalizing ... '
[4] 2:36:35 PM:  ShowStatusInfo: 'Run finished'
[3] 2:36:35 PM: Task 'Run' finished
[4] 2:36:35 PM:  ShowStatusInfo: 'Ready'
[4] 2:36:35 PM:  ShowStatusInfo: 'Run in ScratchBook finalizing ... '
[4] 2:36:35 PM:  ShowStatusInfo: 'Refresh navigation view 'TestCases''
[4] 2:36:35 PM:  ShowStatusInfo: 'Ready'
[4] 2:36:35 PM:  ShowStatusInfo: 'Refresh navigation view 'Requirements''
[4] 2:36:35 PM:  ShowStatusInfo: 'Refresh navigation view 'TestCaseDesign''
[4] 2:36:35 PM:  ShowStatusInfo: 'Refresh navigation view 'Execution''
[4] 2:36:35 PM:  ShowStatusInfo: 'Refresh navigation view 'Issues''
[4] 2:36:35 PM:  ShowStatusInfo: 'Refresh navigation view 'Configurations''
[4] 2:36:35 PM:  ShowStatusInfo: 'Refresh navigation view 'Modules''
[4] 2:36:35 PM:  ShowStatusInfo: 'Refresh detail view 'TestCases''
[4] 2:36:35 PM:  ShowStatusInfo: 'Ready'
[4] 2:36:35 PM:  ShowStatusInfo: 'Refresh detail view 'Requirements''
[4] 2:36:35 PM:  ShowStatusInfo: 'Refresh detail view 'TestCaseDesign''
[4] 2:36:35 PM:  ShowStatusInfo: 'Refresh detail view 'Execution''
[4] 2:36:35 PM:  ShowStatusInfo: 'Refresh detail view 'Issues''
[4] 2:36:35 PM:  ShowStatusInfo: 'Refresh detail view 'Configurations''
[4] 2:36:35 PM:  ShowStatusInfo: 'Refresh detail view 'Modules''
[4] 2:36:35 PM:  ShowStatusInfo: 'Refresh  'WindowLabels''
[4] 2:36:35 PM:  ShowStatusInfo: 'Refresh all finished'
[4] 2:36:35 PM:  ShowStatusInfo: 'Run in ScratchBook finished'
[3] 2:36:35 PM: Task 'Run in ScratchBook' finished
[4] 2:36:35 PM:  ShowStatusInfo: 'Refresh navigation view 'TestCases''
[4] 2:36:35 PM:  ShowStatusInfo: 'Ready'
[4] 2:36:35 PM:  ShowStatusInfo: 'Refresh navigation view 'Requirements''
[4] 2:36:35 PM:  ShowStatusInfo: 'Refresh navigation view 'TestCaseDesign''
[4] 2:36:35 PM:  ShowStatusInfo: 'Refresh navigation view 'Execution''
[4] 2:36:35 PM:  ShowStatusInfo: 'Refresh navigation view 'Issues''
[4] 2:36:35 PM:  ShowStatusInfo: 'Refresh navigation view 'Configurations''
[4] 2:36:35 PM:  ShowStatusInfo: 'Refresh navigation view 'Modules''
[4] 2:36:35 PM:  ShowStatusInfo: 'Refresh detail view 'TestCases''
[4] 2:36:35 PM:  ShowStatusInfo: 'Ready'
[4] 2:36:35 PM:  ShowStatusInfo: 'Refresh detail view 'Requirements''
[4] 2:36:35 PM:  ShowStatusInfo: 'Refresh detail view 'TestCaseDesign''
[4] 2:36:35 PM:  ShowStatusInfo: 'Refresh detail view 'Execution''
[4] 2:36:35 PM:  ShowStatusInfo: 'Refresh detail view 'Issues''
[4] 2:36:35 PM:  ShowStatusInfo: 'Refresh detail view 'Configurations''
[4] 2:36:35 PM:  ShowStatusInfo: 'Refresh detail view 'Modules''
[4] 2:36:35 PM:  ShowStatusInfo: 'Refresh  'WindowLabels''
[4] 2:36:35 PM:  ShowStatusInfo: 'Refresh all finished'
[4] 2:36:35 PM:  ShowStatusInfo: 'Ready'
[4] 2:36:59 PM:  ShowStatusInfo: 'Refresh navigation view 'Modules''
[4] 2:36:59 PM:  ShowStatusInfo: 'Ready'
[4] 2:36:59 PM:  ShowStatusInfo: 'Refresh detail view 'Modules''
[4] 2:36:59 PM:  ShowStatusInfo: 'Ready'
[4] 2:36:59 PM:  ShowStatusInfo: 'Refresh view finished'
[4] 2:37:00 PM:  ShowStatusInfo: '1 object selected'
[4] 2:37:00 PM:  ShowStatusInfo: 'Ready'
[3] 2:37:02 PM: Task 'Scan Application' started on '/Modules/ERFC_TestCase3'
[4] 2:37:02 PM:  ShowStatusInfo: 'Scan Application'
[4] 2:37:05 PM:  ShowStatusInfo: 'Starting Application (Cleaning up previous scan) ...'
[4] 2:37:05 PM:  ShowStatusInfo: 'Initializing  Application'
[4] 2:37:05 PM:  ShowStatusInfo: 'Starting XScan ...'
[4] 2:37:11 PM:  ShowStatusInfo: 'Bring Scan To Foreground ...'
[4] 2:37:11 PM:  ShowStatusInfo: 'Waiting for Scan Result ...'
[4] 2:38:25 PM:  ShowStatusInfo: 'Scan finished ...'
[4] 2:38:26 PM:  ShowStatusInfo: 'Ready'
[4] 2:38:26 PM:  ShowStatusInfo: 'Application finalizing ... '
[4] 2:38:26 PM:  ShowStatusInfo: 'Refresh navigation view 'TestCases''
[4] 2:38:26 PM:  ShowStatusInfo: 'Refresh navigation view 'Requirements''
[4] 2:38:26 PM:  ShowStatusInfo: 'Refresh navigation view 'TestCaseDesign''
[4] 2:38:26 PM:  ShowStatusInfo: 'Refresh navigation view 'Execution''
[4] 2:38:26 PM:  ShowStatusInfo: 'Refresh navigation view 'Issues''
[4] 2:38:26 PM:  ShowStatusInfo: 'Refresh navigation view 'Configurations''
[4] 2:38:26 PM:  ShowStatusInfo: 'Refresh navigation view 'Modules''
[4] 2:38:26 PM:  ShowStatusInfo: 'Ready'
[4] 2:38:26 PM:  ShowStatusInfo: 'Refresh detail view 'TestCases''
[4] 2:38:26 PM:  ShowStatusInfo: 'Refresh detail view 'Requirements''
[4] 2:38:26 PM:  ShowStatusInfo: 'Refresh detail view 'TestCaseDesign''
[4] 2:38:26 PM:  ShowStatusInfo: 'Refresh detail view 'Execution''
[4] 2:38:26 PM:  ShowStatusInfo: 'Refresh detail view 'Issues''
[4] 2:38:26 PM:  ShowStatusInfo: 'Refresh detail view 'Configurations''
[4] 2:38:26 PM:  ShowStatusInfo: 'Refresh detail view 'Modules''
[4] 2:38:26 PM:  ShowStatusInfo: 'Ready'
[4] 2:38:26 PM:  ShowStatusInfo: 'Refresh  'WindowLabels''
[4] 2:38:26 PM:  ShowStatusInfo: 'Refresh all finished'
[4] 2:38:26 PM:  ShowStatusInfo: 'Application finished'
[3] 2:38:26 PM: Task 'Scan Application' finished
[4] 2:38:31 PM:  ShowStatusInfo: 'Ready'
[4] 2:41:57 PM:  ShowStatusInfo: 'Saving ...'
[3] 2:41:57 PM:  Save started!
[3] 2:41:57 PM:  Save finished!
[4] 2:41:57 PM:  ShowStatusInfo: 'Saved successfully'
[3] 2:41:57 PM: Closing Workspace!
[3] 2:41:58 PM: Log closed!
