[3] 11:00:54 PM: Log started for 'C:\Users\ztie0198\Downloads\Tosca_Workspaces\Tosca_Workspaces\Tosca_SAP\Tosca_S.tws'
[3] 11:00:54 PM: Log level: 4
[3] 11:00:54 PM: Release: 13.0.0.28992
[3] 11:00:54 PM: OpenWorkspace took 00:00:28.5050438 to finish
