[3] 4:08:57 PM: Log started for 'C:\Tosca_Projects\Tosca_Workspaces\Tosca_SAP\Tosca_SAP.tws'
[3] 4:08:57 PM: Log level: 4
[3] 4:08:57 PM: Release: 13.0.0.28992
[3] 4:09:03 PM: No service discovery configured.
[3] 4:09:03 PM:  + DistributedExecutionAddIn: DistributedExecutionAddIn 13.0.0.1119 (29017)
[3] 4:09:03 PM:  + ExploratoryTestingAssistant: ExploratoryTestingAssistantAddIn 13.0.0.1119 (28914)
[3] 4:09:03 PM:  + ExploratoryTestingAssistantUI: ExploratoryTestingAssistantUIAddIn 13.0.0.1119 (28914)
[3] 4:09:03 PM:  + IntegrationManagementAddIn: IntegrationManagementAddIn 13.0.0.1119 (28914)
    + : SAPSolutionManagerIntegration 13.0.0.223 (223)
[3] 4:09:03 PM: Search started on 1 objects for query '->PROJECT->SUBPARTS:TCFolder[Name=="Execution"]->SUBPARTS:TCFolder=>SUBPARTS:InteractiveSession'
[3] 4:09:04 PM: Searcher found 0 results in 548.9031 ms
[3] 4:09:04 PM:  + OptIntAddIn: OptIntAddIn 13.0.0.1119 (28914)
[3] 4:09:04 PM:  + RemoteControl: RemoteControlAddIn 13.0.0.1119 (28914)
[3] 4:09:04 PM:  + Reporting: ReportingAddIn 13.0.0.1119 (28914)
[3] 4:09:04 PM:  + ReportingUI: ReportingUIAddIn 13.0.0.1119 (28914)
[3] 4:09:04 PM:  + RequirementsManagementAddIn: RequirementsManagement 13.0.0.1119 (28914)
[3] 4:09:04 PM:  + RequirementsManagementUIAddIn: RequirementsManagementUI 13.0.0.1119 (28914)
[3] 4:09:04 PM:  + SAPSolutionManagerAddIn: SAPSolutionManagerAddIn 13.0.0.1119 (28914)
[3] 4:09:04 PM:  + TestCaseDesign: TestCaseDesign 13.0.0.1119 (28914)
[3] 4:09:04 PM:  + ControlFlowDiagram: TestCaseVisualizationAddIn 13.0.0.1119 (29159)
[3] 4:09:04 PM:  + XDefinitions: XDefinitions 13.0.0.1119 (28914)
[3] 4:09:04 PM:  + XDefinitionsUI: XDefinitionsUI 13.0.0.1119 (28914)
[3] 4:09:04 PM: Opened from Workspace File 'C:\Tosca_Projects\Tosca_Workspaces\Tosca_SAP\Tosca_SAP.tws'
[4] 4:09:34 PM:  ShowStatusInfo: 'Refresh navigation view 'TestCases''
[4] 4:09:34 PM:  ShowStatusInfo: 'Refresh navigation view 'Requirements''
[4] 4:09:34 PM:  ShowStatusInfo: 'Refresh navigation view 'TestCaseDesign''
[4] 4:09:34 PM:  ShowStatusInfo: 'Refresh navigation view 'Execution''
[4] 4:09:34 PM:  ShowStatusInfo: 'Refresh navigation view 'Issues''
[4] 4:09:34 PM:  ShowStatusInfo: 'Refresh navigation view 'Configurations''
[4] 4:09:34 PM:  ShowStatusInfo: 'Refresh navigation view 'Modules''
[4] 4:09:34 PM:  ShowStatusInfo: 'Ready'
[4] 4:09:34 PM:  ShowStatusInfo: 'Refresh detail view 'TestCases''
[4] 4:09:34 PM:  ShowStatusInfo: 'Refresh detail view 'Requirements''
[4] 4:09:34 PM:  ShowStatusInfo: 'Refresh detail view 'TestCaseDesign''
[4] 4:09:34 PM:  ShowStatusInfo: 'Refresh detail view 'Execution''
[4] 4:09:34 PM:  ShowStatusInfo: 'Refresh detail view 'Issues''
[4] 4:09:34 PM:  ShowStatusInfo: 'Refresh detail view 'Configurations''
[4] 4:09:34 PM:  ShowStatusInfo: 'Refresh detail view 'Modules''
[4] 4:09:34 PM:  ShowStatusInfo: 'Ready'
[4] 4:09:34 PM:  ShowStatusInfo: 'Refresh  'WindowLabels''
[4] 4:09:34 PM:  ShowStatusInfo: 'Refresh all finished'
[4] 4:09:36 PM:  ShowStatusInfo: 'Refresh  'WindowLabels''
[4] 4:09:36 PM:  ShowStatusInfo: 'Refresh navigation view 'TestCases''
[4] 4:09:36 PM:  ShowStatusInfo: 'Refresh navigation view 'Requirements''
[4] 4:09:36 PM:  ShowStatusInfo: 'Refresh navigation view 'TestCaseDesign''
[4] 4:09:36 PM:  ShowStatusInfo: 'Refresh navigation view 'Execution''
[4] 4:09:36 PM:  ShowStatusInfo: 'Refresh navigation view 'Issues''
[4] 4:09:36 PM:  ShowStatusInfo: 'Refresh navigation view 'Configurations''
[4] 4:09:36 PM:  ShowStatusInfo: 'Refresh navigation view 'Modules''
[4] 4:09:36 PM:  ShowStatusInfo: 'Ready'
[4] 4:09:36 PM:  ShowStatusInfo: 'Refresh detail view 'TestCases''
[4] 4:09:36 PM:  ShowStatusInfo: 'Refresh detail view 'Requirements''
[4] 4:09:36 PM:  ShowStatusInfo: 'Refresh detail view 'TestCaseDesign''
[4] 4:09:36 PM:  ShowStatusInfo: 'Refresh detail view 'Execution''
[4] 4:09:36 PM:  ShowStatusInfo: 'Refresh detail view 'Issues''
[4] 4:09:36 PM:  ShowStatusInfo: 'Refresh detail view 'Configurations''
[4] 4:09:36 PM:  ShowStatusInfo: 'Refresh detail view 'Modules''
[4] 4:09:36 PM:  ShowStatusInfo: 'Ready'
[4] 4:09:36 PM:  ShowStatusInfo: 'Refresh  'WindowLabels''
[4] 4:09:36 PM:  ShowStatusInfo: 'Refresh all finished'
[4] 4:09:36 PM:  ShowStatusInfo: 'Refresh navigation view 'TestCases''
[4] 4:09:36 PM:  ShowStatusInfo: 'Refresh navigation view 'Requirements''
[4] 4:09:36 PM:  ShowStatusInfo: 'Refresh navigation view 'TestCaseDesign''
[4] 4:09:36 PM:  ShowStatusInfo: 'Refresh navigation view 'Execution''
[4] 4:09:36 PM:  ShowStatusInfo: 'Refresh navigation view 'Issues''
[4] 4:09:36 PM:  ShowStatusInfo: 'Refresh navigation view 'Configurations''
[4] 4:09:36 PM:  ShowStatusInfo: 'Refresh navigation view 'Modules''
[4] 4:09:36 PM:  ShowStatusInfo: 'Ready'
[4] 4:09:36 PM:  ShowStatusInfo: 'Refresh detail view 'TestCases''
[4] 4:09:36 PM:  ShowStatusInfo: 'Refresh detail view 'Requirements''
[4] 4:09:36 PM:  ShowStatusInfo: 'Refresh detail view 'TestCaseDesign''
[4] 4:09:36 PM:  ShowStatusInfo: 'Refresh detail view 'Execution''
[4] 4:09:36 PM:  ShowStatusInfo: 'Refresh detail view 'Issues''
[4] 4:09:36 PM:  ShowStatusInfo: 'Refresh detail view 'Configurations''
[4] 4:09:36 PM:  ShowStatusInfo: 'Refresh detail view 'Modules''
[4] 4:09:36 PM:  ShowStatusInfo: 'Ready'
[4] 4:09:36 PM:  ShowStatusInfo: 'Refresh  'WindowLabels''
[4] 4:09:37 PM:  ShowStatusInfo: 'Refresh all finished'
[3] 4:09:37 PM: OpenWorkspace took 00:00:39.7226738 to finish
[4] 4:09:37 PM:  ShowStatusInfo: 'Ready'
[4] 4:09:37 PM:  ShowStatusInfo: '1 object selected'
[4] 4:09:38 PM:  ShowStatusInfo: 'Ready'
[4] 4:09:46 PM:  ShowStatusInfo: '1 object selected'
[4] 4:09:47 PM:  ShowStatusInfo: 'Ready'
[4] 4:09:48 PM:  ShowStatusInfo: '1 object selected'
[4] 4:09:50 PM:  ShowStatusInfo: 'Ready'
[4] 4:09:52 PM:  ShowStatusInfo: '1 object selected'
[3] 4:09:54 PM: Task 'Scan Application' started on '/Modules'
[4] 4:09:54 PM:  ShowStatusInfo: 'Scan Application'
[4] 4:09:55 PM:  ShowStatusInfo: 'Starting Application (Cleaning up previous scan) ...'
[4] 4:09:55 PM:  ShowStatusInfo: 'Initializing  Application'
[4] 4:10:31 PM:  ShowStatusInfo: 'Starting XScan ...'
[4] 4:10:42 PM:  ShowStatusInfo: 'Bring Scan To Foreground ...'
[4] 4:10:42 PM:  ShowStatusInfo: 'Waiting for Scan Result ...'
[4] 4:12:45 PM:  ShowStatusInfo: 'Scan finished ...'
[4] 4:12:45 PM:  ShowStatusInfo: 'Ready'
[4] 4:12:45 PM:  ShowStatusInfo: 'Application finalizing ... '
[4] 4:12:45 PM:  ShowStatusInfo: 'Refresh navigation view 'TestCases''
[4] 4:12:45 PM:  ShowStatusInfo: 'Refresh navigation view 'Requirements''
[4] 4:12:45 PM:  ShowStatusInfo: 'Refresh navigation view 'TestCaseDesign''
[4] 4:12:45 PM:  ShowStatusInfo: 'Refresh navigation view 'Execution''
[4] 4:12:45 PM:  ShowStatusInfo: 'Refresh navigation view 'Issues''
[4] 4:12:45 PM:  ShowStatusInfo: 'Refresh navigation view 'Configurations''
[4] 4:12:45 PM:  ShowStatusInfo: 'Refresh navigation view 'Modules''
[4] 4:12:45 PM:  ShowStatusInfo: 'Ready'
[4] 4:12:45 PM:  ShowStatusInfo: 'Refresh detail view 'TestCases''
[4] 4:12:45 PM:  ShowStatusInfo: 'Refresh detail view 'Requirements''
[4] 4:12:45 PM:  ShowStatusInfo: 'Refresh detail view 'TestCaseDesign''
[4] 4:12:45 PM:  ShowStatusInfo: 'Refresh detail view 'Execution''
[4] 4:12:45 PM:  ShowStatusInfo: 'Refresh detail view 'Issues''
[4] 4:12:45 PM:  ShowStatusInfo: 'Refresh detail view 'Configurations''
[4] 4:12:45 PM:  ShowStatusInfo: 'Refresh detail view 'Modules''
[4] 4:12:45 PM:  ShowStatusInfo: 'Ready'
[4] 4:12:45 PM:  ShowStatusInfo: 'Refresh  'WindowLabels''
[4] 4:12:45 PM:  ShowStatusInfo: 'Refresh all finished'
[4] 4:12:45 PM:  ShowStatusInfo: 'Application finished'
[3] 4:12:45 PM: Task 'Scan Application' finished
[4] 4:12:50 PM:  ShowStatusInfo: 'Ready'
[4] 4:13:04 PM:  ShowStatusInfo: 'Saving ...'
[4] 4:13:04 PM:  ShowStatusInfo: 'Saved successfully'
[4] 4:13:05 PM:  ShowStatusInfo: 'Saving ...'
[4] 4:13:05 PM:  ShowStatusInfo: 'Saved successfully'
[4] 4:13:05 PM:  ShowStatusInfo: 'Saving ...'
[4] 4:13:05 PM:  ShowStatusInfo: 'Saved successfully'
[4] 4:13:05 PM:  ShowStatusInfo: 'Saving ...'
[4] 4:13:05 PM:  ShowStatusInfo: 'Saved successfully'
[4] 4:13:06 PM:  ShowStatusInfo: 'Saving ...'
[4] 4:13:06 PM:  ShowStatusInfo: 'Saved successfully'
[4] 4:13:11 PM:  ShowStatusInfo: 'Ready'
[3] 4:13:19 PM: Closing Workspace!
[3] 4:13:19 PM: Log closed!
