[3] 12:19:03 PM: Log started for 'C:\Tosca_Projects\Tosca_Workspaces\TOSCA SAP Automation\TOSCA SAP Automation.tws'
[3] 12:19:03 PM: Log level: 4
[3] 12:19:03 PM: Release: 13.0.0.28992
[3] 12:19:12 PM: No service discovery configured.
[3] 12:19:12 PM:  + DistributedExecutionAddIn: DistributedExecutionAddIn 13.0.0.1119 (29017)
[3] 12:19:12 PM:  + ExploratoryTestingAssistant: ExploratoryTestingAssistantAddIn 13.0.0.1119 (28914)
[3] 12:19:13 PM:  + ExploratoryTestingAssistantUI: ExploratoryTestingAssistantUIAddIn 13.0.0.1119 (28914)
[3] 12:19:13 PM:  + IntegrationManagementAddIn: IntegrationManagementAddIn 13.0.0.1119 (28914)
    + : SAPSolutionManagerIntegration 13.0.0.223 (223)
[3] 12:19:13 PM: Search started on 1 objects for query '->PROJECT->SUBPARTS:TCFolder[Name=="Execution"]->SUBPARTS:TCFolder=>SUBPARTS:InteractiveSession'
[3] 12:19:13 PM: Searcher found 0 results in 516.0882 ms
[3] 12:19:13 PM:  + OptIntAddIn: OptIntAddIn 13.0.0.1119 (28914)
[3] 12:19:13 PM:  + RemoteControl: RemoteControlAddIn 13.0.0.1119 (28914)
[3] 12:19:13 PM:  + Reporting: ReportingAddIn 13.0.0.1119 (28914)
[3] 12:19:13 PM:  + ReportingUI: ReportingUIAddIn 13.0.0.1119 (28914)
[3] 12:19:13 PM:  + RequirementsManagementAddIn: RequirementsManagement 13.0.0.1119 (28914)
[3] 12:19:13 PM:  + RequirementsManagementUIAddIn: RequirementsManagementUI 13.0.0.1119 (28914)
[3] 12:19:13 PM:  + SAPSolutionManagerAddIn: SAPSolutionManagerAddIn 13.0.0.1119 (28914)
[3] 12:19:14 PM:  + TestCaseDesign: TestCaseDesign 13.0.0.1119 (28914)
[3] 12:19:14 PM:  + ControlFlowDiagram: TestCaseVisualizationAddIn 13.0.0.1119 (29159)
[3] 12:19:14 PM:  + XDefinitions: XDefinitions 13.0.0.1119 (28914)
[3] 12:19:14 PM:  + XDefinitionsUI: XDefinitionsUI 13.0.0.1119 (28914)
[3] 12:19:14 PM: Opened from Workspace File 'C:\Tosca_Projects\Tosca_Workspaces\TOSCA SAP Automation\TOSCA SAP Automation.tws'
[4] 12:20:09 PM:  ShowStatusInfo: 'Refresh navigation view 'TestCases''
[4] 12:20:09 PM:  ShowStatusInfo: 'Ready'
[4] 12:20:09 PM:  ShowStatusInfo: 'Refresh navigation view 'Modules''
[4] 12:20:09 PM:  ShowStatusInfo: 'Refresh navigation view 'Requirements''
[4] 12:20:09 PM:  ShowStatusInfo: 'Refresh navigation view 'TestCaseDesign''
[4] 12:20:09 PM:  ShowStatusInfo: 'Refresh navigation view 'Execution''
[4] 12:20:09 PM:  ShowStatusInfo: 'Refresh navigation view 'Issues''
[4] 12:20:09 PM:  ShowStatusInfo: 'Refresh navigation view 'Configurations''
[4] 12:20:09 PM:  ShowStatusInfo: 'Refresh navigation view 'TestPlanning''
[4] 12:20:09 PM:  ShowStatusInfo: 'Refresh detail view 'TestCases''
[4] 12:20:09 PM:  ShowStatusInfo: 'Ready'
[4] 12:20:09 PM:  ShowStatusInfo: 'Refresh detail view 'Modules''
[4] 12:20:09 PM:  ShowStatusInfo: 'Refresh detail view 'Requirements''
[4] 12:20:09 PM:  ShowStatusInfo: 'Refresh detail view 'TestCaseDesign''
[4] 12:20:09 PM:  ShowStatusInfo: 'Refresh detail view 'Execution''
[4] 12:20:09 PM:  ShowStatusInfo: 'Refresh detail view 'Issues''
[4] 12:20:09 PM:  ShowStatusInfo: 'Refresh detail view 'Configurations''
[4] 12:20:09 PM:  ShowStatusInfo: 'Refresh detail view 'TestPlanning''
[4] 12:20:09 PM:  ShowStatusInfo: 'Refresh  'WindowLabels''
[4] 12:20:09 PM:  ShowStatusInfo: 'Refresh all finished'
[4] 12:20:11 PM:  ShowStatusInfo: 'Refresh  'WindowLabels''
[4] 12:20:11 PM:  ShowStatusInfo: 'Refresh navigation view 'TestCases''
[4] 12:20:11 PM:  ShowStatusInfo: 'Ready'
[4] 12:20:11 PM:  ShowStatusInfo: 'Refresh navigation view 'Modules''
[4] 12:20:11 PM:  ShowStatusInfo: 'Refresh navigation view 'Requirements''
[4] 12:20:11 PM:  ShowStatusInfo: 'Refresh navigation view 'TestCaseDesign''
[4] 12:20:11 PM:  ShowStatusInfo: 'Refresh navigation view 'Execution''
[4] 12:20:11 PM:  ShowStatusInfo: 'Refresh navigation view 'Issues''
[4] 12:20:11 PM:  ShowStatusInfo: 'Refresh navigation view 'Configurations''
[4] 12:20:11 PM:  ShowStatusInfo: 'Refresh navigation view 'TestPlanning''
[4] 12:20:11 PM:  ShowStatusInfo: 'Refresh detail view 'TestCases''
[4] 12:20:11 PM:  ShowStatusInfo: 'Ready'
[4] 12:20:11 PM:  ShowStatusInfo: 'Refresh detail view 'Modules''
[4] 12:20:11 PM:  ShowStatusInfo: 'Refresh detail view 'Requirements''
[4] 12:20:11 PM:  ShowStatusInfo: 'Refresh detail view 'TestCaseDesign''
[4] 12:20:11 PM:  ShowStatusInfo: 'Refresh detail view 'Execution''
[4] 12:20:11 PM:  ShowStatusInfo: 'Refresh detail view 'Issues''
[4] 12:20:11 PM:  ShowStatusInfo: 'Refresh detail view 'Configurations''
[4] 12:20:11 PM:  ShowStatusInfo: 'Refresh detail view 'TestPlanning''
[4] 12:20:11 PM:  ShowStatusInfo: 'Refresh  'WindowLabels''
[4] 12:20:12 PM:  ShowStatusInfo: 'Refresh all finished'
[4] 12:20:12 PM:  ShowStatusInfo: 'Refresh navigation view 'TestCases''
[4] 12:20:12 PM:  ShowStatusInfo: 'Ready'
[4] 12:20:12 PM:  ShowStatusInfo: 'Refresh navigation view 'Modules''
[4] 12:20:12 PM:  ShowStatusInfo: 'Refresh navigation view 'Requirements''
[4] 12:20:12 PM:  ShowStatusInfo: 'Refresh navigation view 'TestCaseDesign''
[4] 12:20:12 PM:  ShowStatusInfo: 'Refresh navigation view 'Execution''
[4] 12:20:12 PM:  ShowStatusInfo: 'Refresh navigation view 'Issues''
[4] 12:20:12 PM:  ShowStatusInfo: 'Refresh navigation view 'Configurations''
[4] 12:20:12 PM:  ShowStatusInfo: 'Refresh navigation view 'TestPlanning''
[4] 12:20:12 PM:  ShowStatusInfo: 'Refresh detail view 'TestCases''
[4] 12:20:12 PM:  ShowStatusInfo: 'Ready'
[4] 12:20:12 PM:  ShowStatusInfo: 'Refresh detail view 'Modules''
[4] 12:20:12 PM:  ShowStatusInfo: 'Refresh detail view 'Requirements''
[4] 12:20:12 PM:  ShowStatusInfo: 'Refresh detail view 'TestCaseDesign''
[4] 12:20:12 PM:  ShowStatusInfo: 'Refresh detail view 'Execution''
[4] 12:20:12 PM:  ShowStatusInfo: 'Refresh detail view 'Issues''
[4] 12:20:12 PM:  ShowStatusInfo: 'Refresh detail view 'Configurations''
[4] 12:20:12 PM:  ShowStatusInfo: 'Refresh detail view 'TestPlanning''
[4] 12:20:12 PM:  ShowStatusInfo: 'Refresh  'WindowLabels''
[4] 12:20:12 PM:  ShowStatusInfo: 'Refresh all finished'
[3] 12:20:12 PM: OpenWorkspace took 00:01:09.0684383 to finish
[4] 12:20:17 PM:  ShowStatusInfo: 'Ready'
[4] 11:50:08 PM:  ShowStatusInfo: '1 object selected'
[4] 11:50:10 PM:  ShowStatusInfo: 'Ready'
[4] 11:50:10 PM:  ShowStatusInfo: '1 object selected'
[4] 11:50:11 PM:  ShowStatusInfo: 'Ready'
[4] 11:50:11 PM:  ShowStatusInfo: '1 object selected'
[4] 11:50:13 PM:  ShowStatusInfo: 'Refresh navigation view 'Modules''
[4] 11:50:13 PM:  ShowStatusInfo: 'Ready'
[4] 11:50:13 PM:  ShowStatusInfo: 'Refresh detail view 'Modules''
[4] 11:50:13 PM:  ShowStatusInfo: 'Ready'
[4] 11:50:13 PM:  ShowStatusInfo: 'Refresh view finished'
[4] 11:50:15 PM:  ShowStatusInfo: 'Ready'
[4] 11:50:15 PM:  ShowStatusInfo: '1 object selected'
[4] 11:50:17 PM:  ShowStatusInfo: 'Ready'
[4] 11:50:18 PM:  ShowStatusInfo: '1 object selected'
[4] 11:50:20 PM:  ShowStatusInfo: 'Ready'
[4] 11:50:20 PM:  ShowStatusInfo: '1 object selected'
[4] 11:50:23 PM:  ShowStatusInfo: 'Ready'
[4] 11:50:24 PM:  ShowStatusInfo: 'Move'
[4] 11:50:25 PM:  ShowStatusInfo: 'Ready'
[4] 11:50:25 PM:  ShowStatusInfo: 'Create TestCase and TestStep from Module'
[4] 11:50:27 PM:  ShowStatusInfo: 'Ready'
[4] 11:50:27 PM:  ShowStatusInfo: 'Create TestCase and TestStep from Module'
[4] 11:50:30 PM:  ShowStatusInfo: 'Ready'
[4] 11:50:30 PM:  ShowStatusInfo: 'Create TestCase and TestStep from Module finalizing ... '
[4] 11:50:30 PM:  ShowStatusInfo: 'Refresh navigation view 'TestCases''
[4] 11:50:30 PM:  ShowStatusInfo: 'Ready'
[4] 11:50:30 PM:  ShowStatusInfo: 'Refresh navigation view 'Modules''
[4] 11:50:30 PM:  ShowStatusInfo: 'Refresh navigation view 'Requirements''
[4] 11:50:30 PM:  ShowStatusInfo: 'Refresh navigation view 'TestCaseDesign''
[4] 11:50:30 PM:  ShowStatusInfo: 'Refresh navigation view 'Execution''
[4] 11:50:30 PM:  ShowStatusInfo: 'Refresh navigation view 'Issues''
[4] 11:50:30 PM:  ShowStatusInfo: 'Refresh navigation view 'Configurations''
[4] 11:50:30 PM:  ShowStatusInfo: 'Refresh navigation view 'TestPlanning''
[4] 11:50:30 PM:  ShowStatusInfo: 'Refresh detail view 'TestCases''
[4] 11:50:30 PM:  ShowStatusInfo: 'Ready'
[4] 11:50:30 PM:  ShowStatusInfo: 'Refresh detail view 'Modules''
[4] 11:50:30 PM:  ShowStatusInfo: 'Refresh detail view 'Requirements''
[4] 11:50:30 PM:  ShowStatusInfo: 'Refresh detail view 'TestCaseDesign''
[4] 11:50:30 PM:  ShowStatusInfo: 'Refresh detail view 'Execution''
[4] 11:50:30 PM:  ShowStatusInfo: 'Refresh detail view 'Issues''
[4] 11:50:30 PM:  ShowStatusInfo: 'Refresh detail view 'Configurations''
[4] 11:50:30 PM:  ShowStatusInfo: 'Refresh detail view 'TestPlanning''
[4] 11:50:30 PM:  ShowStatusInfo: 'Refresh  'WindowLabels''
[4] 11:50:30 PM:  ShowStatusInfo: 'Refresh all finished'
[4] 11:50:30 PM:  ShowStatusInfo: 'Create TestCase and TestStep from Module finished'
[3] 11:50:30 PM: Task 'Create TestCase and TestStep from Module' finished
[4] 11:50:30 PM:  ShowStatusInfo: 'Refresh navigation view 'TestCases''
[4] 11:50:30 PM:  ShowStatusInfo: 'Ready'
[4] 11:50:30 PM:  ShowStatusInfo: 'Refresh navigation view 'Modules''
[4] 11:50:30 PM:  ShowStatusInfo: 'Refresh navigation view 'Requirements''
[4] 11:50:30 PM:  ShowStatusInfo: 'Refresh navigation view 'TestCaseDesign''
[4] 11:50:30 PM:  ShowStatusInfo: 'Refresh navigation view 'Execution''
[4] 11:50:30 PM:  ShowStatusInfo: 'Refresh navigation view 'Issues''
[4] 11:50:30 PM:  ShowStatusInfo: 'Refresh navigation view 'Configurations''
[4] 11:50:30 PM:  ShowStatusInfo: 'Refresh navigation view 'TestPlanning''
[4] 11:50:30 PM:  ShowStatusInfo: 'Refresh detail view 'TestCases''
[4] 11:50:30 PM:  ShowStatusInfo: 'Ready'
[4] 11:50:30 PM:  ShowStatusInfo: 'Refresh detail view 'Modules''
[4] 11:50:30 PM:  ShowStatusInfo: 'Refresh detail view 'Requirements''
[4] 11:50:30 PM:  ShowStatusInfo: 'Refresh detail view 'TestCaseDesign''
[4] 11:50:30 PM:  ShowStatusInfo: 'Refresh detail view 'Execution''
[4] 11:50:30 PM:  ShowStatusInfo: 'Refresh detail view 'Issues''
[4] 11:50:30 PM:  ShowStatusInfo: 'Refresh detail view 'Configurations''
[4] 11:50:30 PM:  ShowStatusInfo: 'Refresh detail view 'TestPlanning''
[4] 11:50:30 PM:  ShowStatusInfo: 'Refresh  'WindowLabels''
[4] 11:50:30 PM:  ShowStatusInfo: 'Refresh all finished'
[4] 11:50:30 PM:  ShowStatusInfo: '1 object selected'
[4] 11:50:30 PM:  ShowStatusInfo: 'Ready'
[4] 11:50:32 PM:  ShowStatusInfo: '1 object selected'
[4] 11:50:33 PM:  ShowStatusInfo: 'Ready'
[4] 11:51:52 PM:  ShowStatusInfo: '1 object selected'
[4] 11:51:52 PM:  ShowStatusInfo: 'Ready'
[4] 11:51:54 PM:  ShowStatusInfo: '1 object selected'
[4] 11:51:59 PM:  ShowStatusInfo: 'Ready'
[4] 11:52:28 PM:  ShowStatusInfo: '1 object selected'
[4] 11:52:31 PM:  ShowStatusInfo: 'Ready'
[4] 11:52:38 PM:  ShowStatusInfo: 'Refresh navigation view 'Modules''
[4] 11:52:38 PM:  ShowStatusInfo: 'Ready'
[4] 11:52:38 PM:  ShowStatusInfo: 'Refresh detail view 'Modules''
[4] 11:52:38 PM:  ShowStatusInfo: 'Ready'
[4] 11:52:38 PM:  ShowStatusInfo: 'Refresh view finished'
[4] 11:52:40 PM:  ShowStatusInfo: '1 object selected'
[4] 11:52:41 PM:  ShowStatusInfo: 'Ready'
[4] 11:52:41 PM:  ShowStatusInfo: ''
[4] 11:52:42 PM:  ShowStatusInfo: 'Create Reference From Module'
[4] 11:52:42 PM:  ShowStatusInfo: 'Move'
[4] 11:52:42 PM:  ShowStatusInfo: 'Ready'
[4] 11:52:43 PM:  ShowStatusInfo: 'Create TestCase and TestStep from Module'
[4] 11:52:43 PM:  ShowStatusInfo: ''
[4] 11:52:43 PM:  ShowStatusInfo: 'Create TestStep from Module'
[4] 11:52:44 PM:  ShowStatusInfo: 'Ready'
[4] 11:52:44 PM:  ShowStatusInfo: 'Create TestStep from Module finalizing ... '
[4] 11:52:44 PM:  ShowStatusInfo: 'Refresh navigation view 'TestCases''
[4] 11:52:44 PM:  ShowStatusInfo: 'Ready'
[4] 11:52:44 PM:  ShowStatusInfo: 'Refresh navigation view 'Modules''
[4] 11:52:44 PM:  ShowStatusInfo: 'Refresh navigation view 'Requirements''
[4] 11:52:44 PM:  ShowStatusInfo: 'Refresh navigation view 'TestCaseDesign''
[4] 11:52:44 PM:  ShowStatusInfo: 'Refresh navigation view 'Execution''
[4] 11:52:44 PM:  ShowStatusInfo: 'Refresh navigation view 'Issues''
[4] 11:52:44 PM:  ShowStatusInfo: 'Refresh navigation view 'Configurations''
[4] 11:52:44 PM:  ShowStatusInfo: 'Refresh navigation view 'TestPlanning''
[4] 11:52:44 PM:  ShowStatusInfo: 'Refresh detail view 'TestCases''
[4] 11:52:44 PM:  ShowStatusInfo: 'Ready'
[4] 11:52:44 PM:  ShowStatusInfo: 'Refresh detail view 'Modules''
[4] 11:52:44 PM:  ShowStatusInfo: 'Refresh detail view 'Requirements''
[4] 11:52:44 PM:  ShowStatusInfo: 'Refresh detail view 'TestCaseDesign''
[4] 11:52:44 PM:  ShowStatusInfo: 'Refresh detail view 'Execution''
[4] 11:52:44 PM:  ShowStatusInfo: 'Refresh detail view 'Issues''
[4] 11:52:44 PM:  ShowStatusInfo: 'Refresh detail view 'Configurations''
[4] 11:52:44 PM:  ShowStatusInfo: 'Refresh detail view 'TestPlanning''
[4] 11:52:44 PM:  ShowStatusInfo: 'Refresh  'WindowLabels''
[4] 11:52:44 PM:  ShowStatusInfo: 'Refresh all finished'
[4] 11:52:44 PM:  ShowStatusInfo: 'Create TestStep from Module finished'
[3] 11:52:44 PM: Task 'Create TestStep from Module' finished
[4] 11:52:44 PM:  ShowStatusInfo: 'Ready'
[4] 11:52:44 PM:  ShowStatusInfo: 'Refresh navigation view 'TestCases''
[4] 11:52:44 PM:  ShowStatusInfo: 'Ready'
[4] 11:52:44 PM:  ShowStatusInfo: 'Refresh navigation view 'Modules''
[4] 11:52:44 PM:  ShowStatusInfo: 'Refresh navigation view 'Requirements''
[4] 11:52:44 PM:  ShowStatusInfo: 'Refresh navigation view 'TestCaseDesign''
[4] 11:52:44 PM:  ShowStatusInfo: 'Refresh navigation view 'Execution''
[4] 11:52:44 PM:  ShowStatusInfo: 'Refresh navigation view 'Issues''
[4] 11:52:44 PM:  ShowStatusInfo: 'Refresh navigation view 'Configurations''
[4] 11:52:44 PM:  ShowStatusInfo: 'Refresh navigation view 'TestPlanning''
[4] 11:52:44 PM:  ShowStatusInfo: 'Refresh detail view 'TestCases''
[4] 11:52:44 PM:  ShowStatusInfo: 'Ready'
[4] 11:52:44 PM:  ShowStatusInfo: 'Refresh detail view 'Modules''
[4] 11:52:44 PM:  ShowStatusInfo: 'Refresh detail view 'Requirements''
[4] 11:52:44 PM:  ShowStatusInfo: 'Refresh detail view 'TestCaseDesign''
[4] 11:52:44 PM:  ShowStatusInfo: 'Refresh detail view 'Execution''
[4] 11:52:44 PM:  ShowStatusInfo: 'Refresh detail view 'Issues''
[4] 11:52:44 PM:  ShowStatusInfo: 'Refresh detail view 'Configurations''
[4] 11:52:44 PM:  ShowStatusInfo: 'Refresh detail view 'TestPlanning''
[4] 11:52:44 PM:  ShowStatusInfo: 'Refresh  'WindowLabels''
[4] 11:52:44 PM:  ShowStatusInfo: 'Refresh all finished'
[4] 11:52:46 PM:  ShowStatusInfo: '1 object selected'
[4] 11:52:46 PM:  ShowStatusInfo: 'Ready'
[4] 11:53:21 PM:  ShowStatusInfo: '1 object selected'
[4] 11:53:25 PM:  ShowStatusInfo: 'Ready'
[4] 11:53:29 PM:  ShowStatusInfo: '1 object selected'
[4] 11:53:34 PM:  ShowStatusInfo: 'Ready'
[4] 11:55:16 PM:  ShowStatusInfo: '1 object selected'
[4] 11:55:17 PM:  ShowStatusInfo: 'Ready'
[4] 11:55:21 PM:  ShowStatusInfo: '1 object selected'
[4] 11:55:21 PM:  ShowStatusInfo: 'Ready'
[4] 11:55:22 PM:  ShowStatusInfo: '1 object selected'
[4] 11:55:22 PM:  ShowStatusInfo: 'Ready'
[3] 11:55:23 PM: Task 'Run in ScratchBook' started on '/TestCases/<New TestCase>'
[4] 11:55:23 PM:  ShowStatusInfo: 'Run in ScratchBook'
[4] 11:55:25 PM:  ShowStatusInfo: 'Refresh navigation view 'TestCases''
[4] 11:55:25 PM:  ShowStatusInfo: 'Ready'
[4] 11:55:25 PM:  ShowStatusInfo: 'Refresh navigation view 'Modules''
[4] 11:55:25 PM:  ShowStatusInfo: 'Refresh navigation view 'Requirements''
[4] 11:55:25 PM:  ShowStatusInfo: 'Refresh navigation view 'TestCaseDesign''
[4] 11:55:25 PM:  ShowStatusInfo: 'Refresh navigation view 'Execution''
[4] 11:55:25 PM:  ShowStatusInfo: 'Refresh navigation view 'Issues''
[4] 11:55:25 PM:  ShowStatusInfo: 'Refresh navigation view 'Configurations''
[4] 11:55:25 PM:  ShowStatusInfo: 'Refresh navigation view 'TestPlanning''
[4] 11:55:25 PM:  ShowStatusInfo: 'Refresh detail view 'TestCases''
[4] 11:55:25 PM:  ShowStatusInfo: 'Ready'
[4] 11:55:25 PM:  ShowStatusInfo: 'Refresh detail view 'Modules''
[4] 11:55:25 PM:  ShowStatusInfo: 'Refresh detail view 'Requirements''
[4] 11:55:25 PM:  ShowStatusInfo: 'Refresh detail view 'TestCaseDesign''
[4] 11:55:25 PM:  ShowStatusInfo: 'Refresh detail view 'Execution''
[4] 11:55:25 PM:  ShowStatusInfo: 'Refresh detail view 'Issues''
[4] 11:55:25 PM:  ShowStatusInfo: 'Refresh detail view 'Configurations''
[4] 11:55:25 PM:  ShowStatusInfo: 'Refresh detail view 'TestPlanning''
[4] 11:55:25 PM:  ShowStatusInfo: 'Refresh  'WindowLabels''
[4] 11:55:25 PM:  ShowStatusInfo: 'Refresh all finished'
[4] 11:55:26 PM:  ShowStatusInfo: 'Run started with TBoxRunTaskExecutor'
[4] 11:55:26 PM:  ShowStatusInfo: 'Verifying required licenses ...'
[4] 11:55:30 PM:  ShowStatusInfo: 'Execution Running ...'
[4] 11:56:01 PM:  ShowStatusInfo: 'Processing execution results ...'
[3] 11:56:01 PM: AgentResults count: 1
[3] 11:56:02 PM: executionResponses count: 1
[4] 11:56:05 PM:  ShowStatusInfo: 'Run finalizing ... '
[4] 11:56:05 PM:  ShowStatusInfo: 'Run finished'
[3] 11:56:05 PM: Task 'Run' finished
[4] 11:56:05 PM:  ShowStatusInfo: 'Ready'
[4] 11:56:05 PM:  ShowStatusInfo: 'Run in ScratchBook finalizing ... '
[4] 11:56:05 PM:  ShowStatusInfo: 'Refresh navigation view 'TestCases''
[4] 11:56:05 PM:  ShowStatusInfo: 'Ready'
[4] 11:56:05 PM:  ShowStatusInfo: 'Refresh navigation view 'Modules''
[4] 11:56:05 PM:  ShowStatusInfo: 'Refresh navigation view 'Requirements''
[4] 11:56:05 PM:  ShowStatusInfo: 'Refresh navigation view 'TestCaseDesign''
[4] 11:56:05 PM:  ShowStatusInfo: 'Refresh navigation view 'Execution''
[4] 11:56:05 PM:  ShowStatusInfo: 'Refresh navigation view 'Issues''
[4] 11:56:05 PM:  ShowStatusInfo: 'Refresh navigation view 'Configurations''
[4] 11:56:05 PM:  ShowStatusInfo: 'Refresh navigation view 'TestPlanning''
[4] 11:56:05 PM:  ShowStatusInfo: 'Refresh detail view 'TestCases''
[4] 11:56:05 PM:  ShowStatusInfo: 'Ready'
[4] 11:56:05 PM:  ShowStatusInfo: 'Refresh detail view 'Modules''
[4] 11:56:05 PM:  ShowStatusInfo: 'Refresh detail view 'Requirements''
[4] 11:56:05 PM:  ShowStatusInfo: 'Refresh detail view 'TestCaseDesign''
[4] 11:56:05 PM:  ShowStatusInfo: 'Refresh detail view 'Execution''
[4] 11:56:05 PM:  ShowStatusInfo: 'Refresh detail view 'Issues''
[4] 11:56:05 PM:  ShowStatusInfo: 'Refresh detail view 'Configurations''
[4] 11:56:05 PM:  ShowStatusInfo: 'Refresh detail view 'TestPlanning''
[4] 11:56:05 PM:  ShowStatusInfo: 'Refresh  'WindowLabels''
[4] 11:56:05 PM:  ShowStatusInfo: 'Refresh all finished'
[4] 11:56:05 PM:  ShowStatusInfo: 'Run in ScratchBook finished'
[3] 11:56:05 PM: Task 'Run in ScratchBook' finished
[4] 11:56:05 PM:  ShowStatusInfo: 'Refresh navigation view 'TestCases''
[4] 11:56:05 PM:  ShowStatusInfo: 'Ready'
[4] 11:56:05 PM:  ShowStatusInfo: 'Refresh navigation view 'Modules''
[4] 11:56:05 PM:  ShowStatusInfo: 'Refresh navigation view 'Requirements''
[4] 11:56:05 PM:  ShowStatusInfo: 'Refresh navigation view 'TestCaseDesign''
[4] 11:56:05 PM:  ShowStatusInfo: 'Refresh navigation view 'Execution''
[4] 11:56:05 PM:  ShowStatusInfo: 'Refresh navigation view 'Issues''
[4] 11:56:05 PM:  ShowStatusInfo: 'Refresh navigation view 'Configurations''
[4] 11:56:05 PM:  ShowStatusInfo: 'Refresh navigation view 'TestPlanning''
[4] 11:56:05 PM:  ShowStatusInfo: 'Refresh detail view 'TestCases''
[4] 11:56:05 PM:  ShowStatusInfo: 'Ready'
[4] 11:56:05 PM:  ShowStatusInfo: 'Refresh detail view 'Modules''
[4] 11:56:05 PM:  ShowStatusInfo: 'Refresh detail view 'Requirements''
[4] 11:56:05 PM:  ShowStatusInfo: 'Refresh detail view 'TestCaseDesign''
[4] 11:56:05 PM:  ShowStatusInfo: 'Refresh detail view 'Execution''
[4] 11:56:05 PM:  ShowStatusInfo: 'Refresh detail view 'Issues''
[4] 11:56:05 PM:  ShowStatusInfo: 'Refresh detail view 'Configurations''
[4] 11:56:05 PM:  ShowStatusInfo: 'Refresh detail view 'TestPlanning''
[4] 11:56:05 PM:  ShowStatusInfo: 'Refresh  'WindowLabels''
[4] 11:56:05 PM:  ShowStatusInfo: 'Refresh all finished'
[4] 11:56:05 PM:  ShowStatusInfo: 'Ready'
[4] 11:56:10 PM:  ShowStatusInfo: '1 object selected'
[4] 11:56:10 PM:  ShowStatusInfo: 'Ready'
[4] 11:56:12 PM:  ShowStatusInfo: '1 object selected'
[4] 11:56:13 PM:  ShowStatusInfo: 'Saving ...'
[3] 11:56:14 PM:  Save started!
[3] 11:56:16 PM:  Save finished!
[4] 11:56:16 PM:  ShowStatusInfo: 'Saved successfully'
[4] 11:56:18 PM:  ShowStatusInfo: '1 object selected'
[4] 11:56:18 PM:  ShowStatusInfo: 'Ready'
[3] 11:56:19 PM: Task 'Run in ScratchBook' started on '/TestCases/<New TestCase>'
[4] 11:56:19 PM:  ShowStatusInfo: 'Run in ScratchBook'
[4] 11:56:20 PM:  ShowStatusInfo: 'Refresh navigation view 'TestCases''
[4] 11:56:20 PM:  ShowStatusInfo: 'Ready'
[4] 11:56:20 PM:  ShowStatusInfo: 'Refresh navigation view 'Modules''
[4] 11:56:20 PM:  ShowStatusInfo: 'Refresh navigation view 'Requirements''
[4] 11:56:20 PM:  ShowStatusInfo: 'Refresh navigation view 'TestCaseDesign''
[4] 11:56:20 PM:  ShowStatusInfo: 'Refresh navigation view 'Execution''
[4] 11:56:20 PM:  ShowStatusInfo: 'Refresh navigation view 'Issues''
[4] 11:56:20 PM:  ShowStatusInfo: 'Refresh navigation view 'Configurations''
[4] 11:56:20 PM:  ShowStatusInfo: 'Refresh navigation view 'TestPlanning''
[4] 11:56:20 PM:  ShowStatusInfo: 'Refresh detail view 'TestCases''
[4] 11:56:20 PM:  ShowStatusInfo: 'Ready'
[4] 11:56:20 PM:  ShowStatusInfo: 'Refresh detail view 'Modules''
[4] 11:56:20 PM:  ShowStatusInfo: 'Refresh detail view 'Requirements''
[4] 11:56:20 PM:  ShowStatusInfo: 'Refresh detail view 'TestCaseDesign''
[4] 11:56:20 PM:  ShowStatusInfo: 'Refresh detail view 'Execution''
[4] 11:56:20 PM:  ShowStatusInfo: 'Refresh detail view 'Issues''
[4] 11:56:20 PM:  ShowStatusInfo: 'Refresh detail view 'Configurations''
[4] 11:56:20 PM:  ShowStatusInfo: 'Refresh detail view 'TestPlanning''
[4] 11:56:20 PM:  ShowStatusInfo: 'Refresh  'WindowLabels''
[4] 11:56:20 PM:  ShowStatusInfo: 'Refresh all finished'
[4] 11:56:20 PM:  ShowStatusInfo: 'Run started with TBoxRunTaskExecutor'
[4] 11:56:20 PM:  ShowStatusInfo: 'Verifying required licenses ...'
[4] 11:56:22 PM:  ShowStatusInfo: 'Execution Running ...'
[4] 11:56:47 PM:  ShowStatusInfo: 'Processing execution results ...'
[3] 11:56:47 PM: AgentResults count: 1
[3] 11:56:49 PM: executionResponses count: 1
[4] 11:56:50 PM:  ShowStatusInfo: 'Run finalizing ... '
[4] 11:56:50 PM:  ShowStatusInfo: 'Run finished'
[3] 11:56:50 PM: Task 'Run' finished
[4] 11:56:50 PM:  ShowStatusInfo: 'Ready'
[4] 11:56:50 PM:  ShowStatusInfo: 'Run in ScratchBook finalizing ... '
[4] 11:56:50 PM:  ShowStatusInfo: 'Refresh navigation view 'TestCases''
[4] 11:56:50 PM:  ShowStatusInfo: 'Ready'
[4] 11:56:50 PM:  ShowStatusInfo: 'Refresh navigation view 'Modules''
[4] 11:56:50 PM:  ShowStatusInfo: 'Refresh navigation view 'Requirements''
[4] 11:56:50 PM:  ShowStatusInfo: 'Refresh navigation view 'TestCaseDesign''
[4] 11:56:50 PM:  ShowStatusInfo: 'Refresh navigation view 'Execution''
[4] 11:56:50 PM:  ShowStatusInfo: 'Refresh navigation view 'Issues''
[4] 11:56:50 PM:  ShowStatusInfo: 'Refresh navigation view 'Configurations''
[4] 11:56:50 PM:  ShowStatusInfo: 'Refresh navigation view 'TestPlanning''
[4] 11:56:50 PM:  ShowStatusInfo: 'Refresh detail view 'TestCases''
[4] 11:56:50 PM:  ShowStatusInfo: 'Ready'
[4] 11:56:50 PM:  ShowStatusInfo: 'Refresh detail view 'Modules''
[4] 11:56:50 PM:  ShowStatusInfo: 'Refresh detail view 'Requirements''
[4] 11:56:50 PM:  ShowStatusInfo: 'Refresh detail view 'TestCaseDesign''
[4] 11:56:50 PM:  ShowStatusInfo: 'Refresh detail view 'Execution''
[4] 11:56:50 PM:  ShowStatusInfo: 'Refresh detail view 'Issues''
[4] 11:56:50 PM:  ShowStatusInfo: 'Refresh detail view 'Configurations''
[4] 11:56:50 PM:  ShowStatusInfo: 'Refresh detail view 'TestPlanning''
[4] 11:56:50 PM:  ShowStatusInfo: 'Refresh  'WindowLabels''
[4] 11:56:50 PM:  ShowStatusInfo: 'Refresh all finished'
[4] 11:56:50 PM:  ShowStatusInfo: 'Run in ScratchBook finished'
[3] 11:56:50 PM: Task 'Run in ScratchBook' finished
[4] 11:56:50 PM:  ShowStatusInfo: 'Refresh navigation view 'TestCases''
[4] 11:56:50 PM:  ShowStatusInfo: 'Ready'
[4] 11:56:50 PM:  ShowStatusInfo: 'Refresh navigation view 'Modules''
[4] 11:56:50 PM:  ShowStatusInfo: 'Refresh navigation view 'Requirements''
[4] 11:56:50 PM:  ShowStatusInfo: 'Refresh navigation view 'TestCaseDesign''
[4] 11:56:50 PM:  ShowStatusInfo: 'Refresh navigation view 'Execution''
[4] 11:56:50 PM:  ShowStatusInfo: 'Refresh navigation view 'Issues''
[4] 11:56:50 PM:  ShowStatusInfo: 'Refresh navigation view 'Configurations''
[4] 11:56:50 PM:  ShowStatusInfo: 'Refresh navigation view 'TestPlanning''
[4] 11:56:50 PM:  ShowStatusInfo: 'Refresh detail view 'TestCases''
[4] 11:56:50 PM:  ShowStatusInfo: 'Ready'
[4] 11:56:50 PM:  ShowStatusInfo: 'Refresh detail view 'Modules''
[4] 11:56:50 PM:  ShowStatusInfo: 'Refresh detail view 'Requirements''
[4] 11:56:50 PM:  ShowStatusInfo: 'Refresh detail view 'TestCaseDesign''
[4] 11:56:50 PM:  ShowStatusInfo: 'Refresh detail view 'Execution''
[4] 11:56:50 PM:  ShowStatusInfo: 'Refresh detail view 'Issues''
[4] 11:56:50 PM:  ShowStatusInfo: 'Refresh detail view 'Configurations''
[4] 11:56:50 PM:  ShowStatusInfo: 'Refresh detail view 'TestPlanning''
[4] 11:56:50 PM:  ShowStatusInfo: 'Refresh  'WindowLabels''
[4] 11:56:50 PM:  ShowStatusInfo: 'Refresh all finished'
[4] 11:56:50 PM:  ShowStatusInfo: 'Ready'
[4] 11:57:12 PM:  ShowStatusInfo: '1 object selected'
[4] 11:57:12 PM:  ShowStatusInfo: 'Ready'
[3] 11:57:14 PM: Task 'Create Folder' started on '/TestCases/<New TestCase>'
[4] 11:57:14 PM:  ShowStatusInfo: 'Create Folder'
[4] 11:57:14 PM:  ShowStatusInfo: 'Ready'
[4] 11:57:14 PM:  ShowStatusInfo: 'Folder finalizing ... '
[4] 11:57:14 PM:  ShowStatusInfo: 'Refresh navigation view 'TestCases''
[4] 11:57:14 PM:  ShowStatusInfo: 'Ready'
[4] 11:57:14 PM:  ShowStatusInfo: 'Refresh navigation view 'Modules''
[4] 11:57:14 PM:  ShowStatusInfo: 'Refresh navigation view 'Requirements''
[4] 11:57:14 PM:  ShowStatusInfo: 'Refresh navigation view 'TestCaseDesign''
[4] 11:57:14 PM:  ShowStatusInfo: 'Refresh navigation view 'Execution''
[4] 11:57:14 PM:  ShowStatusInfo: 'Refresh navigation view 'Issues''
[4] 11:57:14 PM:  ShowStatusInfo: 'Refresh navigation view 'Configurations''
[4] 11:57:14 PM:  ShowStatusInfo: 'Refresh navigation view 'TestPlanning''
[4] 11:57:14 PM:  ShowStatusInfo: 'Refresh detail view 'TestCases''
[4] 11:57:14 PM:  ShowStatusInfo: 'Ready'
[4] 11:57:14 PM:  ShowStatusInfo: 'Refresh detail view 'Modules''
[4] 11:57:14 PM:  ShowStatusInfo: 'Refresh detail view 'Requirements''
[4] 11:57:14 PM:  ShowStatusInfo: 'Refresh detail view 'TestCaseDesign''
[4] 11:57:14 PM:  ShowStatusInfo: 'Refresh detail view 'Execution''
[4] 11:57:14 PM:  ShowStatusInfo: 'Refresh detail view 'Issues''
[4] 11:57:14 PM:  ShowStatusInfo: 'Refresh detail view 'Configurations''
[4] 11:57:14 PM:  ShowStatusInfo: 'Refresh detail view 'TestPlanning''
[4] 11:57:14 PM:  ShowStatusInfo: 'Refresh  'WindowLabels''
[4] 11:57:14 PM:  ShowStatusInfo: 'Refresh all finished'
[4] 11:57:14 PM:  ShowStatusInfo: 'Folder finished'
[3] 11:57:14 PM: Task 'Create Folder' finished
[4] 11:57:14 PM:  ShowStatusInfo: 'Ready'
[4] 11:57:20 PM:  ShowStatusInfo: '1 object selected'
[4] 11:57:20 PM:  ShowStatusInfo: 'Ready'
[4] 11:57:23 PM:  ShowStatusInfo: '1 object selected'
[4] 11:57:23 PM:  ShowStatusInfo: 'Ready'
[4] 11:57:27 PM:  ShowStatusInfo: '1 object selected'
[4] 11:57:27 PM:  ShowStatusInfo: 'Ready'
[4] 11:57:28 PM:  ShowStatusInfo: '1 object selected'
[4] 11:57:28 PM:  ShowStatusInfo: 'Ready'
[4] 11:57:29 PM:  ShowStatusInfo: ''
[4] 11:57:29 PM:  ShowStatusInfo: 'Move'
[4] 11:57:30 PM:  ShowStatusInfo: 'Move finalizing ... '
[4] 11:57:30 PM:  ShowStatusInfo: 'Refresh navigation view 'TestCases''
[4] 11:57:30 PM:  ShowStatusInfo: 'Ready'
[4] 11:57:30 PM:  ShowStatusInfo: 'Refresh navigation view 'Modules''
[4] 11:57:30 PM:  ShowStatusInfo: 'Refresh navigation view 'Requirements''
[4] 11:57:30 PM:  ShowStatusInfo: 'Refresh navigation view 'TestCaseDesign''
[4] 11:57:30 PM:  ShowStatusInfo: 'Refresh navigation view 'Execution''
[4] 11:57:30 PM:  ShowStatusInfo: 'Refresh navigation view 'Issues''
[4] 11:57:30 PM:  ShowStatusInfo: 'Refresh navigation view 'Configurations''
[4] 11:57:30 PM:  ShowStatusInfo: 'Refresh navigation view 'TestPlanning''
[4] 11:57:30 PM:  ShowStatusInfo: 'Refresh detail view 'TestCases''
[4] 11:57:30 PM:  ShowStatusInfo: 'Ready'
[4] 11:57:30 PM:  ShowStatusInfo: 'Refresh detail view 'Modules''
[4] 11:57:30 PM:  ShowStatusInfo: 'Refresh detail view 'Requirements''
[4] 11:57:30 PM:  ShowStatusInfo: 'Refresh detail view 'TestCaseDesign''
[4] 11:57:30 PM:  ShowStatusInfo: 'Refresh detail view 'Execution''
[4] 11:57:30 PM:  ShowStatusInfo: 'Refresh detail view 'Issues''
[4] 11:57:30 PM:  ShowStatusInfo: 'Refresh detail view 'Configurations''
[4] 11:57:30 PM:  ShowStatusInfo: 'Refresh detail view 'TestPlanning''
[4] 11:57:30 PM:  ShowStatusInfo: 'Refresh  'WindowLabels''
[4] 11:57:30 PM:  ShowStatusInfo: 'Refresh all finished'
[4] 11:57:30 PM:  ShowStatusInfo: 'Move finished'
[3] 11:57:30 PM: Task 'Move' finished
[4] 11:57:30 PM:  ShowStatusInfo: 'Ready'
[4] 11:57:30 PM:  ShowStatusInfo: 'Refresh navigation view 'TestCases''
[4] 11:57:30 PM:  ShowStatusInfo: 'Ready'
[4] 11:57:30 PM:  ShowStatusInfo: 'Refresh navigation view 'Modules''
[4] 11:57:30 PM:  ShowStatusInfo: 'Refresh navigation view 'Requirements''
[4] 11:57:30 PM:  ShowStatusInfo: 'Refresh navigation view 'TestCaseDesign''
[4] 11:57:30 PM:  ShowStatusInfo: 'Refresh navigation view 'Execution''
[4] 11:57:30 PM:  ShowStatusInfo: 'Refresh navigation view 'Issues''
[4] 11:57:30 PM:  ShowStatusInfo: 'Refresh navigation view 'Configurations''
[4] 11:57:30 PM:  ShowStatusInfo: 'Refresh navigation view 'TestPlanning''
[4] 11:57:30 PM:  ShowStatusInfo: 'Refresh detail view 'TestCases''
[4] 11:57:30 PM:  ShowStatusInfo: 'Ready'
[4] 11:57:30 PM:  ShowStatusInfo: 'Refresh detail view 'Modules''
[4] 11:57:30 PM:  ShowStatusInfo: 'Refresh detail view 'Requirements''
[4] 11:57:30 PM:  ShowStatusInfo: 'Refresh detail view 'TestCaseDesign''
[4] 11:57:30 PM:  ShowStatusInfo: 'Refresh detail view 'Execution''
[4] 11:57:30 PM:  ShowStatusInfo: 'Refresh detail view 'Issues''
[4] 11:57:30 PM:  ShowStatusInfo: 'Refresh detail view 'Configurations''
[4] 11:57:30 PM:  ShowStatusInfo: 'Refresh detail view 'TestPlanning''
[4] 11:57:30 PM:  ShowStatusInfo: 'Refresh  'WindowLabels''
[4] 11:57:30 PM:  ShowStatusInfo: 'Refresh all finished'
[4] 11:57:32 PM:  ShowStatusInfo: 'Ready'
[4] 11:57:32 PM:  ShowStatusInfo: '1 object selected'
[4] 11:57:32 PM:  ShowStatusInfo: 'Ready'
[4] 11:57:33 PM:  ShowStatusInfo: '1 object selected'
[4] 11:57:33 PM:  ShowStatusInfo: 'Ready'
[4] 11:57:48 PM:  ShowStatusInfo: '1 object selected'
[4] 11:57:48 PM:  ShowStatusInfo: 'Ready'
[4] 12:17:16 AM:  ShowStatusInfo: '1 object selected'
[4] 12:17:16 AM:  ShowStatusInfo: 'Ready'
[4] 12:17:19 AM:  ShowStatusInfo: '1 object selected'
[4] 12:17:19 AM:  ShowStatusInfo: 'Ready'
[4] 12:24:55 AM:  ShowStatusInfo: 'Show Settingsdialogue finalizing ... '
[4] 12:24:55 AM:  ShowStatusInfo: 'Refresh navigation view 'TestCases''
[4] 12:24:55 AM:  ShowStatusInfo: 'Ready'
[4] 12:24:55 AM:  ShowStatusInfo: 'Refresh navigation view 'Modules''
[4] 12:24:55 AM:  ShowStatusInfo: 'Refresh navigation view 'Requirements''
[4] 12:24:55 AM:  ShowStatusInfo: 'Refresh navigation view 'TestCaseDesign''
[4] 12:24:55 AM:  ShowStatusInfo: 'Refresh navigation view 'Execution''
[4] 12:24:55 AM:  ShowStatusInfo: 'Refresh navigation view 'Issues''
[4] 12:24:55 AM:  ShowStatusInfo: 'Refresh navigation view 'Configurations''
[4] 12:24:55 AM:  ShowStatusInfo: 'Refresh navigation view 'TestPlanning''
[4] 12:24:55 AM:  ShowStatusInfo: 'Refresh detail view 'TestCases''
[4] 12:24:55 AM:  ShowStatusInfo: 'Ready'
[4] 12:24:55 AM:  ShowStatusInfo: 'Refresh detail view 'Modules''
[4] 12:24:55 AM:  ShowStatusInfo: 'Refresh detail view 'Requirements''
[4] 12:24:55 AM:  ShowStatusInfo: 'Refresh detail view 'TestCaseDesign''
[4] 12:24:55 AM:  ShowStatusInfo: 'Refresh detail view 'Execution''
[4] 12:24:55 AM:  ShowStatusInfo: 'Refresh detail view 'Issues''
[4] 12:24:55 AM:  ShowStatusInfo: 'Refresh detail view 'Configurations''
[4] 12:24:55 AM:  ShowStatusInfo: 'Refresh detail view 'TestPlanning''
[4] 12:24:55 AM:  ShowStatusInfo: 'Refresh  'WindowLabels''
[4] 12:24:55 AM:  ShowStatusInfo: 'Refresh all finished'
[4] 12:24:55 AM:  ShowStatusInfo: 'Show Settingsdialogue finished'
[3] 12:24:55 AM: Task 'Show Settingsdialogue' finished
[4] 12:25:00 AM:  ShowStatusInfo: 'Ready'
