[3] 4:04:21 PM: Log started for 'C:\Tosca_Projects\Tosca_Workspaces\First Steps\First Steps.tws'
[3] 4:04:21 PM: Log level: 4
[3] 4:04:21 PM: Release: 13.0.0.28992
[4] 4:04:21 PM:  ShowStatusInfo: 'Ready'
